<svg width="773" height="511" viewBox="0 0 773 511" fill="none" xmlns="http://www.w3.org/2000/svg">
<path fill-rule="evenodd" clip-rule="evenodd" d="M633.769 485.244C820.173 336.656 602.468 175.195 510.462 274.238C603.217 -45.0712 24.8635 -69.4595 155.953 269.547C155.953 269.547 -65.9988 277.05 69.6388 473.991L633.765 485.244H633.769ZM106.046 187.963C116.627 240.444 75.8549 266.993 46.2859 267.785C27.6634 268.286 17.8217 257.92 16.6731 245.505C14.4776 221.791 34.0133 212.69 52.4618 207.549C61.9653 204.902 71.3386 201.203 75.0612 190.19C83.2835 165.878 100.158 158.759 106.046 187.963ZM653.798 478.092C653.798 478.092 722.643 439.987 717.005 353.242C717.005 353.242 716.803 351.011 718.313 350.911C719.824 350.811 743.78 420.837 693.05 472.721L653.798 478.092Z" fill="url(#paint0_linear_2_261)"/>
<path fill-rule="evenodd" clip-rule="evenodd" d="M597.566 249.719C599.816 249.718 602.048 250.121 604.157 250.91C604.861 250.13 605.788 249.588 606.81 249.359C607.833 249.129 608.9 249.224 609.867 249.629C609.984 248.102 610.508 246.634 611.385 245.381C612.261 244.128 613.457 243.137 614.846 242.512C616.236 241.886 617.767 241.65 619.278 241.828C620.79 242.005 622.226 242.591 623.435 243.522C623.899 242.877 624.508 242.351 625.213 241.99C625.918 241.628 626.698 241.439 627.49 241.44C627.765 241.44 628.039 241.462 628.311 241.505C627.495 239.577 627.244 237.454 627.587 235.387C627.93 233.32 628.852 231.394 630.245 229.837C631.638 228.28 633.444 227.156 635.451 226.598C637.457 226.04 639.58 226.071 641.57 226.687C641.97 225.828 642.604 225.102 643.399 224.593C644.195 224.085 645.117 223.814 646.059 223.814H646.206C646.181 223.419 646.168 223.02 646.168 222.623C646.168 217.387 648.234 212.365 651.911 208.662C655.589 204.959 660.577 202.879 665.777 202.879C670.978 202.879 675.966 204.959 679.643 208.662C683.321 212.365 685.387 217.387 685.387 222.623C685.387 222.776 685.387 222.927 685.379 223.079C688.266 222.345 691.322 222.711 693.957 224.108C696.166 221.074 699.378 218.932 703.014 218.066C706.651 217.201 710.475 217.668 713.8 219.386C717.125 221.103 719.733 223.957 721.157 227.436C722.58 230.914 722.726 234.79 721.567 238.367C721.725 238.358 721.881 238.353 722.04 238.353C723.18 238.353 724.306 238.607 725.338 239.097C726.369 239.586 727.28 240.299 728.006 241.184C728.732 242.069 729.254 243.105 729.536 244.217C729.818 245.329 729.853 246.491 729.637 247.618C729.693 247.618 729.745 247.618 729.799 247.618C730.956 247.617 732.068 248.07 732.9 248.88C733.732 249.69 734.219 250.793 734.257 251.958C734.94 251.828 735.633 251.763 736.327 251.762C739.015 251.715 741.62 252.705 743.606 254.529C748.628 259.312 743.142 260.558 737.856 260.558H591.757C586.245 260.558 578.374 261.467 583.844 255.665C585.608 253.785 587.736 252.288 590.095 251.266C592.455 250.243 594.997 249.717 597.566 249.719Z" fill="#E4EDF9"/>
<path fill-rule="evenodd" clip-rule="evenodd" d="M66.4449 118.819C68.6867 118.816 70.9108 119.217 73.0124 120.002C73.7149 119.224 74.6393 118.682 75.6591 118.453C76.6789 118.223 77.7442 118.316 78.7093 118.72C78.8262 117.197 79.3491 115.734 80.2228 114.485C81.0966 113.237 82.2888 112.249 83.6737 111.626C85.0586 111.002 86.5849 110.767 88.0916 110.944C89.5983 111.121 91.0297 111.705 92.2346 112.632C92.6976 111.989 93.3056 111.465 94.0087 111.104C94.7117 110.743 95.4897 110.555 96.2789 110.555C96.5525 110.555 96.8256 110.578 97.0951 110.624C96.2808 108.702 96.0295 106.585 96.3708 104.524C96.7121 102.462 97.6319 100.542 99.0215 98.9899C100.411 97.4375 102.213 96.3176 104.214 95.7623C106.215 95.207 108.332 95.2395 110.315 95.8559C110.714 95.0003 111.346 94.2767 112.138 93.7698C112.93 93.2629 113.849 92.9938 114.788 92.994H114.932C114.908 92.6009 114.895 92.2031 114.895 91.8029C114.895 86.5828 116.955 81.5765 120.621 77.8853C124.287 74.1941 129.259 72.1204 134.444 72.1204C139.629 72.1204 144.601 74.1941 148.267 77.8853C151.933 81.5765 153.993 86.5828 153.993 91.8029C153.993 91.9542 153.993 92.1066 153.993 92.2567C154.957 92.0119 155.948 91.8883 156.943 91.8887C158.894 91.8859 160.816 92.3652 162.54 93.2846C164.742 90.258 167.944 88.121 171.569 87.2571C175.195 86.3933 179.008 86.8592 182.324 88.5712C185.639 90.2833 188.24 93.1293 189.659 96.5982C191.078 100.067 191.222 103.932 190.065 107.498C190.222 107.489 190.38 107.483 190.539 107.483C191.675 107.482 192.798 107.734 193.827 108.222C194.855 108.71 195.764 109.42 196.487 110.303C197.211 111.186 197.731 112.219 198.012 113.328C198.292 114.437 198.326 115.595 198.109 116.719H198.271C199.425 116.718 200.534 117.17 201.363 117.978C202.192 118.785 202.677 119.886 202.715 121.047C203.395 120.917 204.086 120.851 204.778 120.85C207.458 120.805 210.053 121.792 212.033 123.61C217.043 128.374 211.574 129.62 206.303 129.62H60.6535C55.1601 129.62 47.3127 130.526 52.7647 124.737C54.5246 122.864 56.6457 121.374 58.9981 120.356C61.3505 119.338 63.8846 118.815 66.4449 118.819Z" fill="#E4EDF9"/>
<path fill-rule="evenodd" clip-rule="evenodd" d="M113.973 231.203C139.405 202.827 158.332 238.872 155.684 275.054C153.179 309.355 126.193 427.062 131.198 476.579H120.864C95.5893 413.079 81.4158 267.53 113.973 231.203Z" fill="#5CB30B"/>
<path fill-rule="evenodd" clip-rule="evenodd" d="M124.663 476.579C100.058 376.495 131.207 238.154 131.311 237.683C131.345 237.487 131.419 237.3 131.527 237.133C131.636 236.966 131.777 236.823 131.942 236.713C132.107 236.602 132.293 236.527 132.487 236.491C132.682 236.455 132.882 236.46 133.076 236.504C133.466 236.628 133.795 236.897 133.995 237.257C134.194 237.617 134.25 238.04 134.15 238.44C134.048 238.909 102.863 377.41 127.653 476.579H124.663Z" fill="white" fill-opacity="0.6"/>
<path fill-rule="evenodd" clip-rule="evenodd" d="M176.716 293.737C203.517 278.179 210.274 312.13 199.827 340.215C191.168 363.492 152.915 432.343 138.452 476.579H124.829C123.671 415.447 145.081 312.104 176.716 293.737Z" fill="#6ED90B"/>
<path fill-rule="evenodd" clip-rule="evenodd" d="M129.811 476.579C138.675 393.897 188.855 304.026 189.036 303.701C189.11 303.554 189.214 303.424 189.341 303.321C189.469 303.217 189.616 303.141 189.774 303.099C189.933 303.056 190.098 303.048 190.26 303.075C190.421 303.101 190.576 303.161 190.712 303.252C190.995 303.452 191.193 303.751 191.269 304.09C191.345 304.429 191.293 304.785 191.123 305.087C190.944 305.413 141.086 394.704 132.232 476.579H129.811Z" fill="white" fill-opacity="0.6"/>
<path fill-rule="evenodd" clip-rule="evenodd" d="M63.4439 332.982C37.4709 320.547 33.352 352.707 44.8913 378.076C52.6984 395.239 80.8385 439.194 99.7886 476.581H121.412C114.018 420.02 90.2946 345.833 63.4439 332.982Z" fill="#6ED90B"/>
<path fill-rule="evenodd" clip-rule="evenodd" d="M113.691 476.579C95.2511 408.053 52.7719 343.473 52.6086 343.213C52.5288 343.082 52.4223 342.969 52.2961 342.882C52.17 342.795 52.0271 342.736 51.8767 342.709C51.7263 342.682 51.572 342.687 51.4237 342.724C51.2755 342.761 51.1367 342.83 51.0165 342.924C50.767 343.131 50.6022 343.424 50.5535 343.745C50.5049 344.067 50.5758 344.396 50.7527 344.668C50.9206 344.928 92.9433 408.832 111.342 476.579H113.691Z" fill="white" fill-opacity="0.6"/>
<path fill-rule="evenodd" clip-rule="evenodd" d="M624.382 285.899C604.62 263.847 589.916 291.854 591.971 319.974C593.918 346.633 614.887 438.101 611.001 476.579H619.03C638.664 427.236 649.677 314.128 624.382 285.899Z" fill="#5CB30B"/>
<path fill-rule="evenodd" clip-rule="evenodd" d="M616.069 476.579C635.187 398.806 610.982 291.3 610.904 290.935C610.877 290.782 610.82 290.636 610.736 290.507C610.651 290.377 610.542 290.266 610.413 290.18C610.285 290.094 610.141 290.036 609.989 290.008C609.838 289.98 609.682 289.984 609.532 290.019C609.228 290.115 608.973 290.324 608.817 290.603C608.662 290.883 608.619 291.212 608.697 291.523C608.777 291.88 633.01 399.515 613.746 476.579H616.069Z" fill="white" fill-opacity="0.6"/>
<path fill-rule="evenodd" clip-rule="evenodd" d="M575.62 334.495C554.793 322.406 549.542 348.787 557.661 370.611C564.389 388.701 594.115 442.204 605.355 476.579H615.942C616.843 429.071 600.204 348.764 575.62 334.495Z" fill="#6ED90B"/>
<path fill-rule="evenodd" clip-rule="evenodd" d="M612.08 476.579C605.191 412.329 566.198 342.489 566.056 342.234C565.998 342.12 565.917 342.02 565.818 341.939C565.719 341.859 565.605 341.801 565.482 341.768C565.36 341.735 565.231 341.728 565.106 341.748C564.981 341.769 564.861 341.815 564.755 341.885C564.535 342.041 564.381 342.274 564.322 342.538C564.263 342.802 564.304 343.078 564.436 343.314C564.575 343.568 603.32 412.956 610.198 476.581L612.08 476.579Z" fill="white" fill-opacity="0.6"/>
<path fill-rule="evenodd" clip-rule="evenodd" d="M663.643 364.99C683.828 355.328 687.028 380.317 678.06 400.03C671.994 413.369 650.126 447.525 635.401 476.579H618.594C624.341 432.625 642.778 374.975 663.643 364.99Z" fill="#6ED90B"/>
<path fill-rule="evenodd" clip-rule="evenodd" d="M624.597 476.579C638.926 423.33 671.932 373.144 672.063 372.943C672.125 372.841 672.208 372.753 672.306 372.685C672.404 372.618 672.515 372.572 672.632 372.55C672.749 372.529 672.869 372.533 672.984 372.561C673.1 372.59 673.208 372.643 673.302 372.716C673.495 372.877 673.623 373.104 673.661 373.354C673.699 373.604 673.644 373.859 673.507 374.071C673.376 374.273 640.718 423.935 626.421 476.579H624.597Z" fill="white" fill-opacity="0.6"/>
<path fill-rule="evenodd" clip-rule="evenodd" d="M480.294 31.6189C492.533 31.6189 504.496 35.2729 514.672 42.1189C524.848 48.9649 532.779 58.6953 537.463 70.0797C542.146 81.4641 543.372 93.9912 540.984 106.077C538.596 118.162 532.703 129.264 524.049 137.977C515.395 146.69 504.369 152.624 492.365 155.027C480.362 157.431 467.92 156.197 456.613 151.482C445.306 146.766 435.642 138.78 428.843 128.534C422.044 118.289 418.415 106.243 418.415 93.9205C418.415 85.7388 420.016 77.6373 423.126 70.0784C426.235 62.5196 430.793 55.6514 436.539 49.8662C442.285 44.0809 449.107 39.4919 456.614 36.361C464.122 33.2301 472.168 31.6187 480.294 31.6189Z" fill="#6ED90B"/>
<path fill-rule="evenodd" clip-rule="evenodd" d="M476.677 151.234C488.915 151.234 500.879 147.581 511.056 140.735C521.232 133.889 529.163 124.159 533.847 112.774C538.531 101.39 539.757 88.8623 537.369 76.7765C534.982 64.6907 529.088 53.589 520.435 44.8755C511.781 36.162 500.755 30.2279 488.751 27.8236C476.748 25.4194 464.306 26.653 452.999 31.3684C441.691 36.0838 432.027 44.0693 425.227 54.315C418.428 64.5607 414.798 76.6065 414.798 88.9291C414.829 105.443 421.358 121.272 432.956 132.95C444.554 144.627 460.275 151.202 476.677 151.234Z" fill="white"/>
<path fill-rule="evenodd" clip-rule="evenodd" d="M434.22 65.465L436.219 67.9292C436.394 68.1451 436.476 68.422 436.448 68.699C436.42 68.9759 436.283 69.2303 436.069 69.4061C435.855 69.5818 435.58 69.6647 435.304 69.6363C435.029 69.6079 434.777 69.4707 434.602 69.2548L431.263 65.1387C431.077 64.9424 430.973 64.6816 430.973 64.4104C430.973 64.1391 431.077 63.8783 431.263 63.6821L434.602 59.5671C434.777 59.3512 435.029 59.214 435.304 59.1856C435.58 59.1573 435.855 59.2401 436.069 59.4159C436.283 59.5917 436.42 59.846 436.448 60.123C436.476 60.3999 436.394 60.6768 436.219 60.8927L434.22 63.3569L433.417 64.3514L434.22 65.465Z" fill="#316FC3"/>
<path fill-rule="evenodd" clip-rule="evenodd" d="M440.914 65.465L442.914 67.9292C443.089 68.1454 443.171 68.4226 443.143 68.6997C443.114 68.9769 442.978 69.2314 442.763 69.4072C442.548 69.583 442.273 69.6657 441.998 69.6371C441.722 69.6085 441.469 69.471 441.295 69.2547L437.957 65.1386C437.771 64.9421 437.668 64.6814 437.668 64.4103C437.668 64.1393 437.771 63.8786 437.957 63.682L441.295 59.5671C441.469 59.3509 441.722 59.2133 441.998 59.1847C442.273 59.1562 442.548 59.2389 442.763 59.4146C442.978 59.5904 443.114 59.8449 443.143 60.1221C443.171 60.3993 443.089 60.6765 442.914 60.8927L440.914 63.3569L440.11 64.3514L440.914 65.465Z" fill="#316FC3"/>
<path fill-rule="evenodd" clip-rule="evenodd" d="M447.614 65.465L449.612 67.9292C449.787 68.1451 449.869 68.422 449.841 68.699C449.812 68.9759 449.676 69.2303 449.462 69.4061C449.247 69.5818 448.972 69.6647 448.697 69.6363C448.422 69.6079 448.17 69.4707 447.995 69.2548L444.656 65.1387C444.47 64.9424 444.366 64.6816 444.366 64.4104C444.366 64.1391 444.47 63.8783 444.656 63.6821L447.995 59.5671C448.17 59.3512 448.422 59.214 448.697 59.1856C448.972 59.1573 449.247 59.2401 449.462 59.4159C449.676 59.5917 449.812 59.846 449.841 60.123C449.869 60.3999 449.787 60.6768 449.612 60.8927L447.614 63.3569L446.81 64.3514L447.614 65.465Z" fill="#316FC3"/>
<path d="M545.389 53.0049C545.508 42.0865 536.814 33.138 525.97 33.0179C515.126 32.8978 506.238 41.6515 506.119 52.5699C506 63.4884 514.694 72.4368 525.538 72.5569C536.382 72.677 545.27 63.9233 545.389 53.0049Z" fill="#5CB30B"/>
<path fill-rule="evenodd" clip-rule="evenodd" d="M517.345 55.7737C516.816 55.2412 516.519 54.5189 516.519 53.7657C516.519 53.0125 516.816 52.2902 517.345 51.7577C517.874 51.2251 518.591 50.9259 519.339 50.9259C520.087 50.9259 520.805 51.2251 521.334 51.7577L523.64 54.0813L529.91 45.4775C530.125 45.1692 530.399 44.9072 530.717 44.7069C531.034 44.5066 531.387 44.3721 531.757 44.3111C532.126 44.25 532.504 44.2638 532.868 44.3516C533.232 44.4394 533.575 44.5994 533.877 44.8223C534.179 45.0452 534.434 45.3264 534.626 45.6496C534.819 45.9728 534.946 46.3315 534.999 46.7046C535.052 47.0777 535.031 47.4577 534.937 47.8225C534.843 48.1873 534.677 48.5294 534.45 48.829L526.354 59.9458C526.242 60.1219 526.111 60.2856 525.965 60.4342C525.435 60.9666 524.718 61.2657 523.97 61.2657C523.222 61.2657 522.504 60.9666 521.975 60.4342L517.345 55.7737Z" fill="white"/>
<path fill-rule="evenodd" clip-rule="evenodd" d="M425.515 115.293H527.836C523.011 124.772 515.681 132.727 506.655 138.281C497.628 143.836 487.254 146.775 476.675 146.775C466.097 146.775 455.723 143.836 446.696 138.281C437.67 132.727 430.34 124.772 425.515 115.293Z" fill="#316FC3"/>
<path fill-rule="evenodd" clip-rule="evenodd" d="M476.677 79.7345H494.381L501.53 89.5567L476.677 93.4573L451.826 89.5567L458.975 79.7345H476.677Z" fill="#F4A23B"/>
<path fill-rule="evenodd" clip-rule="evenodd" d="M476.677 79.7345H478.866L479.751 89.5567L476.676 93.4573L473.6 89.5567L474.486 79.7345H476.677Z" fill="#F8CBBE"/>
<path d="M501.531 89.5568H451.828V121.38C451.828 121.932 452.275 122.38 452.828 122.38H500.531C501.083 122.38 501.531 121.932 501.531 121.38V89.5568Z" fill="#FAC74C"/>
<path d="M479.751 89.5568H473.605V122.38H479.751V89.5568Z" fill="white"/>
<path fill-rule="evenodd" clip-rule="evenodd" d="M492.331 92.8189C492.197 92.8189 492.069 92.7653 491.974 92.6699C491.879 92.5745 491.826 92.4452 491.826 92.3103C491.826 92.1754 491.879 92.0461 491.974 91.9507C492.069 91.8553 492.197 91.8018 492.331 91.8018H498.346C498.48 91.8018 498.609 91.8553 498.704 91.9507C498.798 92.0461 498.851 92.1754 498.851 92.3103C498.851 92.4452 498.798 92.5745 498.704 92.6699C498.609 92.7653 498.48 92.8189 498.346 92.8189H492.331Z" fill="#F4A23B"/>
<path fill-rule="evenodd" clip-rule="evenodd" d="M492.331 95.1057C492.202 95.0993 492.079 95.0431 491.99 94.9485C491.9 94.8539 491.851 94.7283 491.851 94.5977C491.851 94.4671 491.9 94.3415 491.99 94.2469C492.079 94.1523 492.202 94.096 492.331 94.0897H498.346C498.48 94.0897 498.608 94.1432 498.703 94.2385C498.798 94.3338 498.851 94.463 498.851 94.5977C498.851 94.7324 498.798 94.8616 498.703 94.9569C498.608 95.0521 498.48 95.1057 498.346 95.1057H492.331Z" fill="#F4A23B"/>
<path fill-rule="evenodd" clip-rule="evenodd" d="M492.331 97.3924C492.202 97.3861 492.079 97.3298 491.99 97.2352C491.9 97.1407 491.851 97.015 491.851 96.8844C491.851 96.7538 491.9 96.6282 491.99 96.5336C492.079 96.4391 492.202 96.3828 492.331 96.3765H498.346C498.476 96.3828 498.598 96.4391 498.688 96.5336C498.777 96.6282 498.827 96.7538 498.827 96.8844C498.827 97.015 498.777 97.1407 498.688 97.2352C498.598 97.3298 498.476 97.3861 498.346 97.3924H492.331Z" fill="#F4A23B"/>
<path fill-rule="evenodd" clip-rule="evenodd" d="M476.677 55.4844H489.176L494.227 62.4208L476.673 65.1768L459.119 62.4208L464.171 55.4844H476.677Z" fill="#F4A23B"/>
<path fill-rule="evenodd" clip-rule="evenodd" d="M476.677 55.4844H478.224L478.85 62.4208L476.677 65.1768L474.509 62.4208L475.133 55.4844H476.677Z" fill="#F8CBBE"/>
<path d="M494.232 62.4208H459.124V85.6061H494.232V62.4208Z" fill="#FAC74C"/>
<path d="M478.85 62.4208H474.506V85.6061H478.85V62.4208Z" fill="white"/>
<path fill-rule="evenodd" clip-rule="evenodd" d="M487.737 64.7278C487.69 64.7278 487.644 64.7185 487.601 64.7006C487.558 64.6826 487.519 64.6563 487.486 64.6231C487.453 64.59 487.427 64.5506 487.409 64.5072C487.391 64.4639 487.382 64.4174 487.382 64.3705C487.382 64.3236 487.391 64.2771 487.409 64.2338C487.427 64.1904 487.453 64.151 487.486 64.1178C487.519 64.0847 487.558 64.0583 487.601 64.0404C487.644 64.0224 487.69 64.0132 487.737 64.0132H491.982C492.029 64.0132 492.075 64.0224 492.118 64.0404C492.161 64.0583 492.2 64.0847 492.233 64.1178C492.266 64.151 492.292 64.1904 492.31 64.2338C492.328 64.2771 492.337 64.3236 492.337 64.3705C492.337 64.4174 492.328 64.4639 492.31 64.5072C492.292 64.5506 492.266 64.59 492.233 64.6231C492.2 64.6563 492.161 64.6826 492.118 64.7006C492.075 64.7185 492.029 64.7278 491.982 64.7278H487.737Z" fill="#F4A23B"/>
<path fill-rule="evenodd" clip-rule="evenodd" d="M487.737 66.3428C487.69 66.3428 487.644 66.3335 487.601 66.3156C487.558 66.2976 487.519 66.2713 487.486 66.2381C487.453 66.205 487.427 66.1656 487.409 66.1222C487.391 66.0789 487.382 66.0324 487.382 65.9855C487.382 65.9386 487.391 65.8921 487.409 65.8487C487.427 65.8054 487.453 65.766 487.486 65.7328C487.519 65.6996 487.558 65.6733 487.601 65.6554C487.644 65.6374 487.69 65.6282 487.737 65.6282H491.982C492.029 65.6282 492.075 65.6374 492.118 65.6554C492.161 65.6733 492.2 65.6996 492.233 65.7328C492.266 65.766 492.292 65.8054 492.31 65.8487C492.328 65.8921 492.337 65.9386 492.337 65.9855C492.337 66.0324 492.328 66.0789 492.31 66.1222C492.292 66.1656 492.266 66.205 492.233 66.2381C492.2 66.2713 492.161 66.2976 492.118 66.3156C492.075 66.3335 492.029 66.3428 491.982 66.3428H487.737Z" fill="#F4A23B"/>
<path fill-rule="evenodd" clip-rule="evenodd" d="M487.737 67.9578C487.643 67.9578 487.553 67.9201 487.486 67.8531C487.419 67.7861 487.382 67.6952 487.382 67.6005C487.382 67.5057 487.419 67.4148 487.486 67.3478C487.553 67.2808 487.643 67.2432 487.737 67.2432H491.982C492.077 67.2432 492.167 67.2808 492.233 67.3478C492.3 67.4148 492.337 67.5057 492.337 67.6005C492.337 67.6952 492.3 67.7861 492.233 67.8531C492.167 67.9201 492.077 67.9578 491.982 67.9578H487.737Z" fill="#F4A23B"/>
<path fill-rule="evenodd" clip-rule="evenodd" d="M412.692 235.067C412.692 234.656 412.854 234.262 413.143 233.972C413.431 233.682 413.822 233.519 414.23 233.519C414.638 233.519 415.029 233.682 415.317 233.972C415.606 234.262 415.768 234.656 415.768 235.067V242.027C415.768 242.438 415.606 242.832 415.317 243.122C415.029 243.412 414.638 243.575 414.23 243.575C413.822 243.575 413.431 243.412 413.143 243.122C412.854 242.832 412.692 242.438 412.692 242.027V235.067ZM402.215 240.718C402.067 240.576 401.949 240.405 401.867 240.216C401.785 240.026 401.742 239.823 401.74 239.616C401.738 239.41 401.776 239.205 401.854 239.014C401.931 238.823 402.045 238.65 402.19 238.504C402.335 238.358 402.507 238.243 402.697 238.165C402.887 238.087 403.09 238.048 403.295 238.05C403.5 238.053 403.702 238.096 403.89 238.179C404.078 238.261 404.248 238.38 404.389 238.529L409.278 243.45C409.429 243.592 409.549 243.763 409.633 243.953C409.717 244.143 409.761 244.347 409.765 244.555C409.768 244.762 409.73 244.969 409.653 245.161C409.576 245.353 409.461 245.528 409.315 245.675C409.169 245.822 408.996 245.938 408.805 246.016C408.614 246.094 408.409 246.132 408.203 246.129C407.997 246.125 407.793 246.08 407.605 245.996C407.416 245.912 407.246 245.791 407.105 245.639L402.215 240.718ZM398.785 252.17C398.583 252.17 398.383 252.13 398.196 252.052C398.01 251.974 397.84 251.86 397.697 251.716C397.555 251.572 397.441 251.402 397.364 251.214C397.287 251.026 397.247 250.825 397.247 250.621C397.247 250.418 397.287 250.217 397.364 250.029C397.441 249.841 397.555 249.67 397.697 249.527C397.84 249.383 398.01 249.269 398.196 249.191C398.383 249.113 398.583 249.073 398.785 249.073H405.697C406.104 249.073 406.496 249.236 406.784 249.527C407.072 249.817 407.234 250.211 407.234 250.621C407.234 251.032 407.072 251.426 406.784 251.716C406.496 252.007 406.104 252.17 405.697 252.17H398.785ZM404.395 262.715C404.254 262.866 404.085 262.988 403.896 263.072C403.708 263.156 403.504 263.201 403.298 263.205C403.092 263.208 402.887 263.17 402.696 263.092C402.505 263.014 402.332 262.899 402.186 262.752C402.04 262.605 401.925 262.43 401.848 262.238C401.77 262.046 401.732 261.839 401.735 261.632C401.739 261.424 401.783 261.22 401.867 261.03C401.95 260.84 402.071 260.669 402.221 260.527L407.111 255.605C407.253 255.456 407.423 255.336 407.611 255.254C407.799 255.172 408.001 255.129 408.206 255.127C408.411 255.124 408.614 255.163 408.804 255.241C408.993 255.319 409.166 255.435 409.311 255.581C409.455 255.727 409.57 255.9 409.647 256.091C409.724 256.282 409.763 256.487 409.76 256.693C409.758 256.9 409.714 257.103 409.633 257.292C409.551 257.482 409.432 257.652 409.284 257.795L404.395 262.715ZM415.769 266.178C415.769 266.589 415.607 266.983 415.319 267.273C415.03 267.564 414.639 267.727 414.231 267.727C413.823 267.727 413.432 267.564 413.144 267.273C412.855 266.983 412.693 266.589 412.693 266.178V259.218C412.693 258.808 412.855 258.414 413.144 258.123C413.432 257.833 413.823 257.67 414.231 257.67C414.639 257.67 415.03 257.833 415.319 258.123C415.607 258.414 415.769 258.808 415.769 259.218V266.178ZM426.244 260.527C426.396 260.668 426.518 260.839 426.603 261.03C426.688 261.22 426.734 261.425 426.738 261.634C426.742 261.842 426.705 262.05 426.627 262.243C426.55 262.436 426.434 262.612 426.288 262.76C426.142 262.907 425.967 263.023 425.775 263.101C425.583 263.179 425.377 263.217 425.17 263.213C424.963 263.209 424.759 263.162 424.57 263.077C424.381 262.991 424.211 262.868 424.071 262.715L419.183 257.795C418.905 257.503 418.752 257.112 418.756 256.708C418.761 256.303 418.922 255.917 419.206 255.63C419.49 255.344 419.874 255.181 420.276 255.176C420.677 255.172 421.065 255.325 421.356 255.605L426.244 260.527ZM429.682 249.074C430.09 249.074 430.481 249.237 430.77 249.528C431.058 249.818 431.22 250.212 431.22 250.623C431.22 251.033 431.058 251.427 430.77 251.717C430.481 252.008 430.09 252.171 429.682 252.171H422.771C422.569 252.171 422.369 252.131 422.182 252.053C421.996 251.975 421.826 251.861 421.683 251.717C421.54 251.574 421.427 251.403 421.35 251.215C421.273 251.027 421.233 250.826 421.233 250.623C421.233 250.419 421.273 250.218 421.35 250.03C421.427 249.842 421.54 249.672 421.683 249.528C421.826 249.384 421.996 249.27 422.182 249.192C422.369 249.114 422.569 249.074 422.771 249.074H429.682ZM424.071 238.529C424.362 238.254 424.748 238.105 425.147 238.111C425.546 238.118 425.927 238.281 426.209 238.565C426.491 238.849 426.653 239.233 426.659 239.635C426.666 240.036 426.517 240.425 426.244 240.718L421.356 245.639C421.064 245.914 420.678 246.064 420.279 246.057C419.88 246.051 419.499 245.888 419.217 245.604C418.935 245.319 418.774 244.936 418.767 244.534C418.761 244.132 418.91 243.744 419.183 243.45L424.071 238.529Z" fill="#6ED90B"/>
<path fill-rule="evenodd" clip-rule="evenodd" d="M666.008 310.922C666.008 310.512 666.17 310.118 666.458 309.828C666.747 309.537 667.138 309.374 667.546 309.374C667.954 309.374 668.345 309.537 668.633 309.828C668.921 310.118 669.083 310.512 669.083 310.922V317.881C669.083 318.292 668.921 318.686 668.633 318.976C668.345 319.267 667.954 319.43 667.546 319.43C667.138 319.43 666.747 319.267 666.458 318.976C666.17 318.686 666.008 318.292 666.008 317.881V310.922ZM655.534 316.571C655.273 316.276 655.133 315.892 655.145 315.497C655.156 315.101 655.316 314.725 655.594 314.446C655.872 314.166 656.245 314.004 656.638 313.993C657.03 313.981 657.412 314.121 657.705 314.385L662.593 319.306C662.745 319.447 662.867 319.618 662.952 319.809C663.037 319.999 663.083 320.204 663.087 320.413C663.091 320.621 663.053 320.829 662.976 321.022C662.898 321.215 662.783 321.391 662.636 321.538C662.49 321.686 662.315 321.802 662.123 321.88C661.931 321.957 661.725 321.995 661.518 321.991C661.311 321.987 661.106 321.94 660.918 321.855C660.729 321.769 660.559 321.646 660.419 321.493L655.534 316.571ZM652.093 328.023C651.686 328.023 651.294 327.86 651.006 327.569C650.718 327.279 650.556 326.885 650.556 326.475C650.556 326.064 650.718 325.67 651.006 325.38C651.294 325.089 651.686 324.926 652.093 324.926H659.005C659.413 324.926 659.804 325.089 660.093 325.38C660.381 325.67 660.543 326.064 660.543 326.475C660.543 326.885 660.381 327.279 660.093 327.569C659.804 327.86 659.413 328.023 659.005 328.023H652.093ZM657.705 338.572C657.413 338.84 657.029 338.984 656.633 338.974C656.238 338.965 655.861 338.802 655.582 338.52C655.303 338.238 655.142 337.859 655.133 337.461C655.124 337.063 655.268 336.677 655.534 336.383L660.419 331.461C660.559 331.306 660.728 331.182 660.917 331.095C661.107 331.008 661.311 330.96 661.519 330.955C661.727 330.95 661.934 330.988 662.127 331.066C662.32 331.143 662.495 331.26 662.643 331.407C662.79 331.555 662.906 331.732 662.983 331.926C663.061 332.12 663.098 332.329 663.094 332.538C663.089 332.747 663.042 332.953 662.956 333.144C662.87 333.335 662.746 333.506 662.593 333.647L657.705 338.572ZM669.081 342.026C669.081 342.436 668.919 342.83 668.631 343.12C668.342 343.411 667.951 343.574 667.543 343.574C667.135 343.574 666.744 343.411 666.456 343.12C666.168 342.83 666.006 342.436 666.006 342.026V335.064C666.006 334.653 666.168 334.26 666.456 333.969C666.744 333.679 667.135 333.516 667.543 333.516C667.951 333.516 668.342 333.679 668.631 333.969C668.919 334.26 669.081 334.653 669.081 335.064V342.034V342.026ZM679.553 336.377C679.823 336.67 679.969 337.058 679.961 337.457C679.954 337.857 679.792 338.239 679.512 338.521C679.231 338.804 678.853 338.967 678.455 338.975C678.058 338.983 677.674 338.837 677.382 338.566L672.494 333.641C672.338 333.5 672.212 333.33 672.123 333.138C672.035 332.947 671.987 332.74 671.981 332.529C671.975 332.319 672.012 332.109 672.089 331.913C672.166 331.717 672.283 331.54 672.431 331.391C672.579 331.242 672.756 331.125 672.95 331.047C673.145 330.969 673.353 330.932 673.562 330.938C673.771 330.944 673.977 330.993 674.167 331.082C674.357 331.171 674.526 331.298 674.666 331.455L679.553 336.377ZM682.992 324.924C683.4 324.924 683.791 325.087 684.079 325.377C684.368 325.668 684.53 326.061 684.53 326.472C684.53 326.883 684.368 327.277 684.079 327.567C683.791 327.857 683.4 328.02 682.992 328.02H676.076C675.668 328.02 675.277 327.857 674.988 327.567C674.7 327.277 674.538 326.883 674.538 326.472C674.538 326.061 674.7 325.668 674.988 325.377C675.277 325.087 675.668 324.924 676.076 324.924H682.992ZM677.382 314.379C677.674 314.113 678.057 313.971 678.451 313.981C678.845 313.991 679.22 314.153 679.498 314.434C679.777 314.715 679.938 315.092 679.948 315.489C679.958 315.885 679.817 316.271 679.553 316.565L674.666 321.487C674.526 321.643 674.356 321.768 674.167 321.856C673.977 321.944 673.772 321.992 673.563 321.998C673.355 322.003 673.147 321.966 672.953 321.888C672.759 321.81 672.583 321.693 672.436 321.545C672.288 321.396 672.172 321.219 672.095 321.024C672.018 320.829 671.981 320.62 671.986 320.41C671.991 320.2 672.039 319.993 672.127 319.802C672.214 319.611 672.339 319.441 672.494 319.3L677.382 314.379Z" fill="#6ED90B"/>
<path fill-rule="evenodd" clip-rule="evenodd" d="M52.0194 1.54709C52.0194 1.13645 52.1814 0.742632 52.4698 0.452267C52.7582 0.161903 53.1494 -0.0012207 53.5572 -0.0012207C53.9651 -0.0012207 54.3562 0.161903 54.6446 0.452267C54.933 0.742632 55.095 1.13645 55.095 1.54709V8.50495C55.095 8.91559 54.933 9.30941 54.6446 9.59977C54.3562 9.89014 53.9651 10.0533 53.5572 10.0533C53.1494 10.0533 52.7582 9.89014 52.4698 9.59977C52.1814 9.30941 52.0194 8.91559 52.0194 8.50495V1.54709ZM41.5448 7.19604C41.3944 7.05408 41.2739 6.88312 41.1904 6.69332C41.1069 6.50352 41.0622 6.29876 41.0589 6.09121C41.0556 5.88366 41.0938 5.67756 41.1712 5.48517C41.2486 5.29277 41.3636 5.11801 41.5094 4.97127C41.6552 4.82453 41.8289 4.70881 42.02 4.631C42.2111 4.55318 42.4158 4.51485 42.622 4.51829C42.8281 4.52173 43.0314 4.56687 43.2199 4.65102C43.4084 4.73518 43.5781 4.85663 43.719 5.00816L48.6068 9.9294C48.8843 10.2219 49.0371 10.6121 49.0326 11.0166C49.028 11.4211 48.8664 11.8078 48.5823 12.0938C48.2982 12.3798 47.9142 12.5426 47.5124 12.5472C47.1107 12.5518 46.7231 12.3979 46.4326 12.1185L41.5448 7.19604ZM38.1061 18.65C37.6983 18.65 37.3072 18.4868 37.0188 18.1965C36.7304 17.9061 36.5684 17.5123 36.5684 17.1016C36.5684 16.691 36.7304 16.2972 37.0188 16.0068C37.3072 15.7165 37.6983 15.5533 38.1061 15.5533H45.0202C45.428 15.5533 45.8192 15.7165 46.1076 16.0068C46.396 16.2972 46.558 16.691 46.558 17.1016C46.558 17.5123 46.396 17.9061 46.1076 18.1965C45.8192 18.4868 45.428 18.65 45.0202 18.65H38.1061ZM43.719 29.1951C43.4285 29.4746 43.0409 29.6285 42.6392 29.6238C42.2374 29.6192 41.8534 29.4565 41.5693 29.1705C41.2852 28.8844 41.1236 28.4978 41.119 28.0933C41.1144 27.6888 41.2673 27.2985 41.5448 27.0061L46.4326 22.086C46.573 21.9327 46.7427 21.8095 46.9315 21.7238C47.1204 21.6381 47.3245 21.5918 47.5316 21.5875C47.7387 21.5832 47.9445 21.621 48.1367 21.6988C48.3289 21.7766 48.5035 21.8926 48.65 22.04C48.7966 22.1874 48.912 22.3631 48.9895 22.5565C49.0669 22.7499 49.1048 22.9571 49.1007 23.1656C49.0967 23.3742 49.0508 23.5797 48.966 23.7699C48.8811 23.9602 48.7589 24.1312 48.6068 24.2727L43.719 29.1951ZM55.0926 32.6574C55.0926 33.068 54.9306 33.4618 54.6422 33.7522C54.3538 34.0426 53.9627 34.2057 53.5548 34.2057C53.147 34.2057 52.7559 34.0426 52.4675 33.7522C52.1791 33.4618 52.0171 33.068 52.0171 32.6574V25.7019C52.0171 25.2913 52.1791 24.8975 52.4675 24.6071C52.7559 24.3167 53.147 24.1536 53.5548 24.1536C53.9627 24.1536 54.3538 24.3167 54.6422 24.6071C54.9306 24.8975 55.0926 25.2913 55.0926 25.7019V32.6574ZM65.5672 27.0061C65.8448 27.2985 65.9976 27.6888 65.993 28.0933C65.9885 28.4978 65.8268 28.8844 65.5427 29.1705C65.2586 29.4565 64.8746 29.6192 64.4729 29.6238C64.0711 29.6285 63.6835 29.4746 63.393 29.1951L58.5053 24.2727C58.2279 23.9801 58.0753 23.5897 58.0801 23.1852C58.0849 22.7807 58.2467 22.3942 58.531 22.1083C58.8152 21.8224 59.1993 21.6599 59.6011 21.6555C60.0028 21.6511 60.3903 21.8052 60.6807 22.0848L65.5672 27.0049V27.0061ZM69.0095 15.5545C69.4173 15.5545 69.8085 15.7176 70.0968 16.008C70.3852 16.2984 70.5473 16.6922 70.5473 17.1028C70.5473 17.5135 70.3852 17.9073 70.0968 18.1977C69.8085 18.488 69.4173 18.6511 69.0095 18.6511H62.0978C61.6899 18.6511 61.2988 18.488 61.0104 18.1977C60.722 17.9073 60.56 17.5135 60.56 17.1028C60.56 16.6922 60.722 16.2984 61.0104 16.008C61.2988 15.7176 61.6899 15.5545 62.0978 15.5545H69.0095ZM63.3978 5.00816C63.689 4.73331 64.075 4.58325 64.4741 4.58969C64.8732 4.59614 65.2542 4.75858 65.5365 5.04269C65.8188 5.32679 65.9804 5.7103 65.987 6.11214C65.9936 6.51398 65.8448 6.90266 65.572 7.19604L60.6854 12.1185C60.3971 12.4089 60.006 12.5721 59.5981 12.5723C59.1903 12.5724 58.7991 12.4094 58.5106 12.1191C58.2222 11.8288 58.06 11.435 58.0599 11.0244C58.0598 10.6137 58.2217 10.2198 58.51 9.9294L63.3978 5.00816Z" fill="#FADCC2"/>
<path d="M420.237 174.375H426.471C427.022 174.376 427.55 174.596 427.939 174.988C428.328 175.381 428.547 175.912 428.547 176.467V182.742C428.547 183.297 428.328 183.829 427.939 184.221C427.549 184.613 427.021 184.834 426.47 184.834H420.236C419.686 184.834 419.158 184.614 418.769 184.222C418.38 183.83 418.161 183.299 418.161 182.745V176.466C418.161 175.911 418.38 175.38 418.769 174.988C419.159 174.596 419.687 174.375 420.237 174.375V174.375Z" fill="#6ED90B"/>
<path d="M441.529 174.375H447.761C448.034 174.375 448.304 174.429 448.556 174.535C448.808 174.64 449.037 174.794 449.23 174.988C449.423 175.182 449.576 175.413 449.68 175.666C449.784 175.92 449.838 176.192 449.838 176.467V182.742C449.838 183.017 449.784 183.289 449.68 183.543C449.576 183.796 449.423 184.027 449.23 184.221C449.037 184.415 448.808 184.569 448.556 184.674C448.304 184.78 448.034 184.834 447.761 184.834H441.528C440.978 184.834 440.45 184.614 440.061 184.222C439.672 183.83 439.453 183.299 439.453 182.745V176.466C439.453 175.911 439.672 175.38 440.061 174.988C440.451 174.596 440.979 174.375 441.529 174.375V174.375Z" fill="#6ED90B"/>
<path d="M462.817 174.375H469.052C469.603 174.375 470.131 174.596 470.521 174.988C470.91 175.38 471.129 175.912 471.129 176.467V182.742C471.129 183.297 470.91 183.829 470.521 184.221C470.131 184.613 469.603 184.834 469.052 184.834H462.819C462.546 184.834 462.276 184.779 462.024 184.674C461.772 184.569 461.542 184.415 461.349 184.221C461.156 184.026 461.003 183.796 460.899 183.542C460.794 183.288 460.741 183.016 460.741 182.741V176.466C460.741 175.911 460.959 175.38 461.349 174.988C461.738 174.596 462.266 174.375 462.817 174.375V174.375Z" fill="#6ED90B"/>
<path d="M484.11 174.375H490.345C490.896 174.375 491.423 174.595 491.812 174.987C492.201 175.379 492.42 175.91 492.42 176.464V182.742C492.42 183.297 492.201 183.829 491.812 184.221C491.422 184.613 490.894 184.834 490.343 184.834H484.111C483.56 184.834 483.032 184.613 482.643 184.221C482.253 183.829 482.034 183.297 482.034 182.742V176.466C482.034 175.911 482.253 175.38 482.642 174.988C483.032 174.596 483.56 174.375 484.11 174.375V174.375Z" fill="#6ED90B"/>
<path d="M177.535 426.518H183.769C184.32 426.518 184.848 426.738 185.237 427.13C185.627 427.522 185.846 428.054 185.846 428.609V434.883C185.846 435.438 185.627 435.97 185.237 436.362C184.848 436.754 184.32 436.975 183.769 436.975H177.535C176.984 436.975 176.457 436.755 176.068 436.363C175.679 435.971 175.46 435.44 175.46 434.886V428.607C175.46 428.053 175.679 427.521 176.068 427.13C176.457 426.738 176.984 426.518 177.535 426.518V426.518Z" fill="#6ED90B"/>
<path d="M198.826 426.518H205.06C205.61 426.518 206.138 426.738 206.528 427.13C206.917 427.522 207.136 428.054 207.136 428.608V434.882C207.135 435.437 206.916 435.969 206.526 436.362C206.136 436.754 205.607 436.975 205.056 436.975H198.827C198.276 436.975 197.748 436.754 197.359 436.363C196.97 435.971 196.751 435.439 196.751 434.885V428.607C196.751 428.053 196.97 427.521 197.359 427.13C197.748 426.738 198.276 426.518 198.826 426.518V426.518Z" fill="#6ED90B"/>
<path d="M220.116 426.518H226.352C226.902 426.518 227.43 426.738 227.819 427.13C228.208 427.521 228.427 428.053 228.427 428.607V434.882C228.426 435.437 228.207 435.969 227.818 436.361C227.428 436.754 226.899 436.974 226.348 436.975H220.12C219.569 436.975 219.04 436.754 218.65 436.362C218.26 435.969 218.041 435.437 218.041 434.882V428.607C218.041 428.053 218.259 427.521 218.648 427.13C219.038 426.738 219.565 426.518 220.116 426.518V426.518Z" fill="#6ED90B"/>
<path d="M241.408 426.518H247.643C247.916 426.518 248.186 426.571 248.438 426.676C248.689 426.781 248.918 426.935 249.111 427.129C249.304 427.323 249.457 427.553 249.561 427.807C249.665 428.061 249.719 428.332 249.719 428.607V434.882C249.719 435.437 249.5 435.969 249.11 436.362C248.72 436.754 248.191 436.975 247.64 436.975H241.413C240.861 436.975 240.333 436.754 239.943 436.362C239.553 435.969 239.334 435.437 239.333 434.882V428.607C239.333 428.053 239.552 427.521 239.941 427.13C240.33 426.738 240.858 426.518 241.408 426.518Z" fill="#6ED90B"/>
<path fill-rule="evenodd" clip-rule="evenodd" d="M524.114 283.775C531.213 283.775 538.153 281.656 544.056 277.684C549.96 273.713 554.561 268.069 557.277 261.464C559.994 254.86 560.705 247.593 559.32 240.583C557.935 233.572 554.517 227.132 549.497 222.077C544.477 217.022 538.081 213.58 531.117 212.185C524.154 210.791 516.937 211.506 510.378 214.242C503.818 216.977 498.212 221.609 494.267 227.553C490.323 233.496 488.218 240.484 488.217 247.632C488.236 257.212 492.024 266.394 498.751 273.168C505.479 279.942 514.599 283.757 524.114 283.775Z" fill="#6ED90B"/>
<path fill-rule="evenodd" clip-rule="evenodd" d="M518.855 280.187C525.954 280.187 532.894 278.067 538.797 274.095C544.7 270.124 549.301 264.479 552.018 257.875C554.734 251.27 555.445 244.003 554.06 236.992C552.674 229.982 549.255 223.542 544.235 218.487C539.215 213.433 532.819 209.991 525.855 208.597C518.892 207.202 511.674 207.918 505.115 210.654C498.556 213.39 492.95 218.022 489.006 223.966C485.062 229.91 482.957 236.898 482.957 244.046C482.974 253.626 486.762 262.809 493.49 269.583C500.219 276.357 509.339 280.17 518.855 280.187Z" fill="white"/>
<path fill-rule="evenodd" clip-rule="evenodd" d="M503.017 230.149C504.987 228.178 507.653 227.071 510.431 227.071C513.209 227.071 515.875 228.178 517.845 230.149L518.853 231.164L519.859 230.149C521.829 228.178 524.495 227.071 527.273 227.071C530.051 227.071 532.716 228.178 534.686 230.149C536.645 232.133 537.744 234.817 537.744 237.614C537.744 240.411 536.645 243.095 534.686 245.078L533.679 246.092L518.853 261.02L504.024 246.092L503.017 245.078C501.059 243.094 499.96 240.411 499.96 237.614C499.96 234.817 501.059 232.134 503.017 230.149Z" fill="#6ED90B"/>
<path d="M170.244 163.709H209.09C211.792 163.709 214.383 164.79 216.294 166.713C218.205 168.637 219.278 171.246 219.278 173.967V213.08C219.278 215.8 218.205 218.41 216.294 220.333C214.383 222.257 211.792 223.338 209.09 223.338H170.243C167.541 223.338 164.95 222.257 163.039 220.334C161.129 218.41 160.055 215.801 160.055 213.081V173.968C160.055 171.247 161.128 168.638 163.039 166.714C164.95 164.79 167.542 163.709 170.244 163.709Z" fill="#6ED90B"/>
<path d="M165.847 158.478H204.693C207.395 158.478 209.987 159.559 211.897 161.482C213.808 163.406 214.881 166.015 214.881 168.736V207.846C214.881 210.567 213.808 213.177 211.897 215.101C209.986 217.025 207.394 218.106 204.692 218.106H165.847C163.144 218.106 160.553 217.025 158.642 215.101C156.732 213.177 155.658 210.568 155.658 207.848V168.736C155.658 166.015 156.732 163.406 158.642 161.482C160.553 159.559 163.144 158.478 165.847 158.478Z" fill="white"/>
<path fill-rule="evenodd" clip-rule="evenodd" d="M180.368 181.513C178.742 183.183 177.689 185.332 177.363 187.647C177.356 187.691 177.353 187.736 177.353 187.782V199.171C177.352 199.285 177.373 199.399 177.417 199.504C177.46 199.61 177.524 199.705 177.605 199.786C178.437 200.64 179.364 201.394 180.368 202.034C181.349 202.707 182.494 203.098 183.68 203.166H195.287C196.293 203.172 197.269 202.82 198.043 202.173C198.817 201.525 199.339 200.623 199.518 199.626C199.536 199.537 199.575 199.453 199.631 199.381C199.687 199.309 199.759 199.251 199.841 199.212C201.299 198.476 201.48 196.434 201.26 194.994C201.259 194.977 201.257 194.96 201.253 194.943C201.229 194.829 201.239 194.71 201.281 194.601C201.323 194.492 201.395 194.398 201.49 194.33C203.264 193.02 202.882 190.399 202.092 188.639C202.082 188.618 202.074 188.599 202.065 188.581C201.991 188.446 201.973 188.288 202.015 188.14C202.189 187.529 202.283 186.898 202.294 186.263C202.33 185.55 202.106 184.849 201.664 184.292C201.253 183.855 200.724 183.549 200.142 183.413C199.616 183.279 199.074 183.214 198.531 183.22H192.2C191.72 183.29 191.231 183.198 190.809 182.958C190.387 182.718 190.056 182.343 189.868 181.893C189.309 180.537 189.921 178.232 190.341 176.885C190.603 176.048 190.738 175.175 190.742 174.297C190.754 173.011 190.437 171.744 189.822 170.618C189.646 170.304 189.442 170.007 189.211 169.731C188.991 169.448 188.711 169.219 188.391 169.06C188.285 169.014 188.171 168.99 188.055 168.991H187.063C186.836 168.992 186.619 169.081 186.457 169.241C186.295 169.401 186.202 169.618 186.197 169.846C186.213 171.725 185.994 173.598 185.544 175.421C185.295 176.506 184.821 177.525 184.153 178.412C183.484 179.299 182.637 180.034 181.667 180.568C181.195 180.826 180.757 181.143 180.365 181.513H180.368ZM175.471 200.847V184.072C175.471 183.844 175.406 183.622 175.285 183.431C175.237 183.354 175.18 183.284 175.117 183.22C175.006 183.107 174.875 183.017 174.729 182.956C174.584 182.895 174.429 182.863 174.271 182.863H168.995C168.711 182.859 168.435 182.96 168.219 183.146L168.164 183.201L168.131 183.238C167.915 183.461 167.794 183.76 167.795 184.072V200.847C167.796 201.167 167.923 201.474 168.148 201.7C168.373 201.927 168.677 202.054 168.995 202.056H174.271C174.553 202.061 174.827 201.961 175.041 201.776C175.062 201.759 175.081 201.741 175.099 201.721L175.135 201.683C175.191 201.625 175.241 201.561 175.285 201.492C175.406 201.299 175.47 201.075 175.471 200.847Z" fill="#5CB30B"/>
<path fill-rule="evenodd" clip-rule="evenodd" d="M586.745 59.4194C587.456 59.4194 588.152 59.207 588.743 58.809C589.335 58.411 589.796 57.8453 590.068 57.1835C590.34 56.5217 590.412 55.7935 590.273 55.0909C590.134 54.3884 589.791 53.743 589.288 53.2365C588.785 52.73 588.144 52.385 587.446 52.2453C586.749 52.1055 586.025 52.1772 585.368 52.4514C584.711 52.7255 584.149 53.1897 583.754 53.7853C583.358 54.3809 583.147 55.0812 583.147 55.7975C583.149 56.7575 583.529 57.6776 584.203 58.3565C584.877 59.0353 585.791 59.4175 586.745 59.4194Z" fill="#6ED90B"/>
<path fill-rule="evenodd" clip-rule="evenodd" d="M742.225 185.381C742.936 185.381 743.632 185.168 744.223 184.77C744.815 184.372 745.276 183.807 745.548 183.145C745.82 182.483 745.892 181.755 745.753 181.052C745.614 180.35 745.271 179.704 744.768 179.198C744.265 178.691 743.624 178.346 742.926 178.207C742.229 178.067 741.505 178.139 740.848 178.413C740.191 178.687 739.629 179.151 739.234 179.747C738.838 180.342 738.627 181.042 738.627 181.759C738.63 182.719 739.01 183.638 739.684 184.317C740.358 184.996 741.271 185.378 742.225 185.381Z" fill="#6ED90B"/>
<path fill-rule="evenodd" clip-rule="evenodd" d="M743.823 32.4564C744.534 32.4562 745.229 32.2436 745.82 31.8456C746.412 31.4477 746.872 30.8821 747.144 30.2205C747.416 29.5589 747.487 28.8309 747.348 28.1287C747.21 27.4264 746.867 26.7814 746.364 26.2751C745.861 25.7689 745.22 25.4242 744.523 25.2846C743.825 25.145 743.102 25.2167 742.445 25.4908C741.788 25.7649 741.227 26.229 740.832 26.8243C740.436 27.4197 740.226 28.1197 740.226 28.8358C740.227 29.7956 740.607 30.7157 741.281 31.3943C741.956 32.0729 742.869 32.4548 743.823 32.4564Z" fill="#6ED90B"/>
<path fill-rule="evenodd" clip-rule="evenodd" d="M57.9551 164.454C58.6666 164.454 59.3621 164.242 59.9536 163.844C60.5452 163.446 61.0062 162.88 61.2785 162.219C61.5508 161.557 61.622 160.829 61.4832 160.126C61.3444 159.423 61.0018 158.778 60.4987 158.272C59.9957 157.765 59.3547 157.42 58.6569 157.28C57.9591 157.141 57.2358 157.212 56.5785 157.486C55.9212 157.761 55.3594 158.225 54.9642 158.82C54.5689 159.416 54.3579 160.116 54.3579 160.833C54.3598 161.793 54.7394 162.713 55.4136 163.391C56.0878 164.07 57.0017 164.453 57.9551 164.454Z" fill="#6ED90B"/>
<path fill-rule="evenodd" clip-rule="evenodd" d="M3.59481 373.714C4.30627 373.715 5.00182 373.502 5.59351 373.105C6.1852 372.707 6.64644 372.141 6.91892 371.48C7.1914 370.818 7.26288 370.09 7.12431 369.387C6.98574 368.685 6.64335 368.039 6.14044 367.532C5.63752 367.026 4.99667 366.681 4.29893 366.541C3.60118 366.401 2.87788 366.472 2.22049 366.746C1.5631 367.02 1.00114 367.484 0.605677 368.079C0.210216 368.675 -0.000986709 369.375 -0.0012207 370.091C0.000652729 371.051 0.380046 371.971 1.05396 372.65C1.72787 373.329 2.64144 373.712 3.59481 373.714Z" fill="#6ED90B"/>
<path fill-rule="evenodd" clip-rule="evenodd" d="M769.407 380.154C770.118 380.154 770.814 379.942 771.405 379.544C771.997 379.146 772.458 378.58 772.73 377.919C773.002 377.257 773.074 376.529 772.935 375.826C772.796 375.123 772.453 374.478 771.95 373.972C771.447 373.465 770.806 373.12 770.109 372.98C769.411 372.841 768.687 372.912 768.03 373.186C767.373 373.461 766.811 373.925 766.416 374.52C766.021 375.116 765.81 375.816 765.81 376.533C765.812 377.493 766.191 378.412 766.866 379.091C767.54 379.77 768.453 380.152 769.407 380.154Z" fill="#6ED90B"/>
<path fill-rule="evenodd" clip-rule="evenodd" d="M397.135 454.591C397.135 455.045 396.956 455.48 396.637 455.801C396.318 456.122 395.886 456.302 395.435 456.302C394.984 456.302 394.552 456.122 394.233 455.801C393.914 455.48 393.735 455.045 393.735 454.591V324.196C393.792 313.924 397.884 304.092 405.118 296.848C412.352 289.605 422.14 285.539 432.342 285.539C442.545 285.539 452.332 289.605 459.566 296.848C466.8 304.092 470.893 313.924 470.949 324.196V454.591C470.949 455.045 470.77 455.48 470.452 455.801C470.133 456.122 469.701 456.302 469.25 456.302C468.799 456.302 468.367 456.122 468.049 455.801C467.73 455.48 467.551 455.045 467.551 454.591V324.196C467.551 314.794 463.841 305.778 457.239 299.13C450.636 292.482 441.681 288.747 432.343 288.747C423.005 288.747 414.05 292.482 407.447 299.13C400.844 305.778 397.135 314.794 397.135 324.196V454.591Z" fill="#282A3A"/>
<path fill-rule="evenodd" clip-rule="evenodd" d="M400.094 457.908H532.791C533.559 457.91 534.295 458.219 534.838 458.765C535.381 459.312 535.688 460.053 535.691 460.826C535.688 461.599 535.382 462.34 534.839 462.887C534.296 463.434 533.559 463.742 532.791 463.745H400.094C399.327 463.742 398.591 463.434 398.048 462.887C397.506 462.34 397.2 461.599 397.198 460.826C397.2 460.053 397.506 459.312 398.049 458.766C398.591 458.219 399.327 457.911 400.094 457.908Z" fill="#282A3A"/>
<path d="M432.111 388.435H527.639C528.055 388.435 528.466 388.518 528.851 388.678C529.235 388.838 529.584 389.073 529.878 389.369C530.172 389.665 530.405 390.017 530.564 390.403C530.724 390.79 530.805 391.205 530.805 391.624V451.403C530.805 451.821 530.724 452.236 530.564 452.623C530.405 453.009 530.172 453.361 529.878 453.657C529.584 453.953 529.235 454.188 528.851 454.348C528.466 454.508 528.055 454.591 527.639 454.591H432.115C431.275 454.591 430.469 454.255 429.875 453.657C429.282 453.059 428.948 452.248 428.948 451.403V391.62C428.948 390.775 429.281 389.965 429.874 389.368C430.468 388.771 431.272 388.435 432.111 388.435V388.435Z" fill="#F4A23B"/>
<path d="M401.502 388.435H440.292C441.272 388.435 442.212 388.827 442.905 389.525C443.598 390.223 443.987 391.169 443.987 392.156V450.873C443.987 451.859 443.598 452.806 442.905 453.503C442.212 454.201 441.272 454.593 440.292 454.593H401.502C401.017 454.593 400.537 454.497 400.089 454.31C399.641 454.123 399.234 453.849 398.891 453.504C398.548 453.158 398.276 452.748 398.091 452.297C397.905 451.846 397.81 451.362 397.81 450.874V392.152C397.81 391.166 398.199 390.221 398.892 389.524C399.584 388.827 400.523 388.435 401.502 388.435V388.435Z" fill="#FAC74C"/>
<path d="M477.631 409.82H501.909C502.429 409.82 502.944 409.923 503.424 410.123C503.905 410.324 504.341 410.617 504.709 410.987C505.076 411.358 505.368 411.797 505.567 412.281C505.766 412.764 505.868 413.283 505.868 413.806V423.9C505.868 424.957 505.451 425.972 504.709 426.72C503.966 427.467 502.958 427.887 501.908 427.887H477.634C477.114 427.887 476.599 427.784 476.119 427.584C475.639 427.384 475.202 427.09 474.835 426.72C474.467 426.35 474.176 425.91 473.977 425.427C473.778 424.943 473.676 424.425 473.676 423.901V413.803C473.676 412.746 474.093 411.733 474.834 410.986C475.576 410.239 476.582 409.82 477.631 409.82V409.82Z" fill="#FAC74C"/>
<path d="M452.565 388.435H447.023V454.591H452.565V388.435Z" fill="#FAC74C"/>
<path d="M462.462 388.435H456.917V454.591H462.462V388.435Z" fill="#FAC74C"/>
<path d="M516.951 388.435H511.41V454.591H516.951V388.435Z" fill="#FAC74C"/>
<path d="M526.846 388.435H521.304V454.591H526.846V388.435Z" fill="#FAC74C"/>
<path d="M410.45 411.073H431.349C432.253 411.073 433.12 411.434 433.759 412.078C434.398 412.721 434.757 413.594 434.757 414.504V423.198C434.757 424.108 434.398 424.981 433.759 425.625C433.12 426.268 432.253 426.63 431.349 426.63H410.45C410.002 426.63 409.558 426.541 409.145 426.368C408.731 426.196 408.355 425.943 408.039 425.624C407.722 425.305 407.471 424.927 407.3 424.51C407.128 424.093 407.04 423.647 407.041 423.196V414.502C407.041 413.592 407.401 412.72 408.04 412.077C408.68 411.434 409.546 411.073 410.45 411.073V411.073Z" fill="#F4A23B"/>
<path d="M442.606 347.831H501.226C501.741 347.831 502.236 348.038 502.6 348.405C502.965 348.772 503.169 349.269 503.169 349.788V386.471C503.17 386.729 503.121 386.984 503.023 387.222C502.926 387.461 502.783 387.677 502.603 387.86C502.422 388.042 502.207 388.187 501.971 388.286C501.735 388.384 501.482 388.435 501.226 388.435H442.605C442.089 388.435 441.595 388.229 441.23 387.862C440.866 387.495 440.661 386.997 440.661 386.478V349.789C440.661 349.27 440.866 348.772 441.231 348.405C441.595 348.038 442.09 347.831 442.606 347.831V347.831Z" fill="#EE7D3A"/>
<path d="M423.822 347.831H447.626C448.227 347.831 448.804 348.072 449.229 348.5C449.654 348.928 449.893 349.508 449.893 350.113V386.153C449.893 386.758 449.654 387.339 449.229 387.767C448.804 388.195 448.227 388.435 447.626 388.435H423.819C423.218 388.435 422.641 388.195 422.216 387.767C421.791 387.339 421.552 386.758 421.552 386.153V350.117C421.552 349.511 421.792 348.929 422.217 348.501C422.643 348.072 423.22 347.831 423.822 347.831V347.831Z" fill="#F4A23B"/>
<path d="M481.937 347.831H469.581V365.114H481.937V347.831Z" fill="#F9E7D8"/>
<path fill-rule="evenodd" clip-rule="evenodd" d="M394.899 454.591H462.534C463.301 454.593 464.036 454.9 464.579 455.446C465.122 455.992 465.428 456.732 465.431 457.504C465.429 458.277 465.123 459.018 464.58 459.566C464.038 460.113 463.302 460.421 462.534 460.425H394.899C394.131 460.422 393.395 460.113 392.852 459.566C392.309 459.019 392.002 458.278 392 457.504C392.003 456.731 392.309 455.991 392.853 455.445C393.396 454.899 394.132 454.592 394.899 454.591Z" fill="#4B4C5B"/>
<path fill-rule="evenodd" clip-rule="evenodd" d="M454.391 454.591H536.587C537.355 454.592 538.09 454.899 538.633 455.445C539.176 455.991 539.482 456.732 539.484 457.504C539.483 458.278 539.177 459.019 538.634 459.566C538.092 460.113 537.356 460.422 536.587 460.425H454.391C453.623 460.421 452.887 460.113 452.344 459.566C451.801 459.019 451.495 458.278 451.493 457.504C451.496 456.732 451.803 455.992 452.346 455.446C452.888 454.9 453.624 454.593 454.391 454.591Z" fill="#282A3A"/>
<path fill-rule="evenodd" clip-rule="evenodd" d="M404.331 472.595C405.299 472.595 406.245 472.306 407.05 471.764C407.855 471.222 408.482 470.453 408.852 469.552C409.222 468.652 409.319 467.661 409.13 466.705C408.941 465.749 408.475 464.871 407.79 464.182C407.106 463.492 406.233 463.023 405.284 462.833C404.334 462.643 403.35 462.741 402.456 463.114C401.562 463.487 400.797 464.119 400.259 464.929C399.722 465.739 399.435 466.692 399.435 467.667C399.437 468.973 399.954 470.226 400.871 471.149C401.789 472.073 403.033 472.593 404.331 472.595Z" fill="#282A3A"/>
<path fill-rule="evenodd" clip-rule="evenodd" d="M443.499 472.595C444.467 472.596 445.414 472.307 446.219 471.765C447.024 471.224 447.651 470.454 448.022 469.554C448.393 468.653 448.49 467.662 448.301 466.706C448.112 465.75 447.646 464.872 446.962 464.182C446.277 463.493 445.405 463.024 444.455 462.833C443.506 462.643 442.522 462.741 441.627 463.114C440.733 463.487 439.968 464.118 439.43 464.929C438.892 465.739 438.605 466.692 438.605 467.667C438.607 468.973 439.123 470.226 440.041 471.149C440.958 472.073 442.201 472.593 443.499 472.595Z" fill="#282A3A"/>
<path fill-rule="evenodd" clip-rule="evenodd" d="M487.665 472.595C488.633 472.595 489.579 472.306 490.384 471.764C491.189 471.222 491.816 470.453 492.186 469.552C492.557 468.652 492.653 467.661 492.464 466.705C492.275 465.749 491.809 464.871 491.124 464.182C490.44 463.492 489.568 463.023 488.618 462.833C487.669 462.643 486.685 462.741 485.79 463.114C484.896 463.487 484.131 464.119 483.594 464.929C483.056 465.739 482.769 466.692 482.769 467.667C482.771 468.974 483.287 470.226 484.205 471.15C485.123 472.074 486.367 472.594 487.665 472.595Z" fill="#282A3A"/>
<path fill-rule="evenodd" clip-rule="evenodd" d="M526.837 472.595C527.805 472.595 528.751 472.305 529.555 471.763C530.36 471.221 530.986 470.451 531.356 469.55C531.726 468.65 531.823 467.659 531.633 466.703C531.444 465.747 530.978 464.87 530.293 464.181C529.608 463.492 528.736 463.023 527.787 462.833C526.837 462.643 525.853 462.741 524.959 463.114C524.065 463.487 523.301 464.119 522.763 464.929C522.225 465.74 521.938 466.692 521.938 467.667C521.94 468.974 522.457 470.227 523.376 471.151C524.294 472.075 525.538 472.594 526.837 472.595Z" fill="#282A3A"/>
<path fill-rule="evenodd" clip-rule="evenodd" d="M24.091 471.995H730.782C733.015 472.002 735.155 472.899 736.734 474.488C738.313 476.078 739.203 478.233 739.21 480.481C739.204 482.73 738.314 484.884 736.735 486.475C735.155 488.065 733.016 488.961 730.782 488.968H702.346C701.106 488.971 699.917 489.469 699.04 490.351C698.163 491.234 697.668 492.431 697.664 493.68C697.668 494.929 698.162 496.126 699.039 497.01C699.917 497.894 701.105 498.392 702.346 498.396H712.756C714.307 498.401 715.792 499.024 716.889 500.129C717.985 501.233 718.603 502.729 718.608 504.29C718.602 505.851 717.984 507.346 716.888 508.45C715.791 509.553 714.306 510.175 712.756 510.18H43.0553C41.5049 510.176 40.019 509.554 38.9224 508.451C37.8257 507.347 37.2073 505.852 37.2023 504.29C37.2073 502.729 37.8255 501.233 38.9221 500.129C40.0186 499.024 41.5044 498.401 43.0553 498.396H51.2505C52.4916 498.393 53.6808 497.895 54.5581 497.011C55.4355 496.127 55.9296 494.929 55.9324 493.68C55.9287 492.431 55.4341 491.234 54.5568 490.351C53.6795 489.469 52.4908 488.971 51.2505 488.968H24.091C21.8577 488.961 19.718 488.064 18.1389 486.474C16.5598 484.884 15.6697 482.73 15.6628 480.481C15.6694 478.232 16.5595 476.078 18.1386 474.488C19.7178 472.898 21.8577 472.002 24.091 471.995ZM28.4808 510.18C29.9692 510.176 31.3957 509.579 32.4485 508.52C33.5013 507.461 34.0949 506.025 34.0996 504.526V504.05C34.0949 502.551 33.5013 501.115 32.4485 500.056C31.3958 498.996 29.9693 498.399 28.4808 498.395C26.9923 498.399 25.5661 498.996 24.5134 500.056C23.4606 501.115 22.867 502.551 22.862 504.05V504.526C22.867 506.025 23.4607 507.46 24.5134 508.52C25.5662 509.579 26.9924 510.176 28.4808 510.18Z" fill="#3173C9"/>
<path fill-rule="evenodd" clip-rule="evenodd" d="M345.971 252.558L346.742 253.997C346.742 253.997 346.712 255.196 343.378 255.862C340.043 256.528 277.067 260.284 271.881 259.22C266.695 258.157 263.748 255.43 262.783 253.504C261.818 251.578 264.472 248.399 264.472 248.399C264.472 248.399 322.475 234.495 345.971 252.558Z" fill="#2259A4"/>
<path fill-rule="evenodd" clip-rule="evenodd" d="M270.296 233.314L266.865 240.46C266.865 240.46 276.328 317.616 278.873 333.287C281.417 348.958 303.004 368.934 340.897 422.334L348.468 431.182C348.803 431.363 349.18 431.453 349.561 431.443C349.942 431.432 350.313 431.321 350.638 431.121C351.644 430.406 357.89 423.167 357.89 423.167C358.25 422.62 358.429 421.971 358.4 421.315C358.371 420.658 358.136 420.028 357.729 419.515C356.327 417.49 314.147 338.184 307.797 324.411C307.797 324.411 317.445 238.378 314.313 228.44C311.18 218.502 270.296 233.314 270.296 233.314Z" fill="#3173C9"/>
<path fill-rule="evenodd" clip-rule="evenodd" d="M270.296 233.314L266.865 240.46C266.865 240.46 267.493 245.581 268.469 253.433C272.771 253.404 281.76 253.566 286.15 255.288C291.776 257.497 292.761 281.511 278.947 333.707C280.876 344.255 291.338 356.855 309.508 380.242C310.067 372.54 311.301 355.809 311.532 355.191C311.832 354.387 315.028 353.079 317.426 357.202C319.824 361.326 344.408 406.702 346.307 410.926C347.985 414.665 351.385 420.297 343.141 424.96L348.464 431.182C348.8 431.363 349.177 431.453 349.558 431.443C349.938 431.432 350.31 431.321 350.635 431.121C351.64 430.406 357.886 423.167 357.886 423.167C358.247 422.62 358.426 421.971 358.397 421.315C358.368 420.658 358.133 420.028 357.725 419.515C356.324 417.49 314.144 338.184 307.794 324.411C307.794 324.411 317.441 238.378 314.309 228.44C311.177 218.502 270.296 233.314 270.296 233.314Z" fill="#326DBE"/>
<path fill-rule="evenodd" clip-rule="evenodd" d="M340.577 234.501L345.018 244.26C345.018 244.26 343.328 268.22 332.321 290.066C321.314 311.913 311.575 333.999 309.458 338.037C307.341 342.074 309.458 351.571 305.648 375.077C301.838 398.583 295.38 441.449 295.063 444.182C294.746 446.914 293.581 446.556 291.835 446.556H283.525C283.08 446.595 282.631 446.543 282.206 446.405C281.78 446.267 281.386 446.045 281.046 445.752C280.707 445.46 280.428 445.102 280.227 444.699C280.026 444.297 279.907 443.859 279.876 443.41C279.876 441.742 283.425 339.935 283.949 331.624C284.473 323.313 291.252 296.834 293.792 281.636C296.331 266.439 300.354 243.881 291.677 231.295C282.999 218.708 340.577 234.501 340.577 234.501Z" fill="#3173C9"/>
<path fill-rule="evenodd" clip-rule="evenodd" d="M340.577 234.501L345.018 244.26C345.018 244.26 343.328 268.22 332.321 290.066C321.314 311.913 311.575 333.999 309.458 338.037C307.341 342.074 309.458 351.571 305.648 375.077C301.838 398.583 295.38 441.45 295.063 444.182C294.746 446.914 293.581 446.557 291.835 446.557H283.525C283.08 446.595 282.631 446.543 282.206 446.405C281.78 446.267 281.386 446.045 281.046 445.753C280.707 445.46 280.428 445.102 280.227 444.7C280.026 444.297 279.907 443.859 279.876 443.41C279.876 443.204 279.928 441.504 280.023 438.663C287.316 437.367 290.943 435.466 291.943 429.941C293.142 423.297 300.933 343.921 300.736 341.909C300.54 339.896 297.638 339.494 298.437 337.28C299.235 335.066 312.427 314.543 319.621 298.446C326.816 282.35 328.612 271.988 325.917 266.655C323.222 261.321 311.627 255.285 305.926 256.394C301.884 257.178 298.044 262.723 296.155 265.882C297.292 256.054 297.566 245.643 294.712 237.423C295.281 233.707 295.946 229.999 296.644 226.442C309.814 226.066 340.577 234.501 340.577 234.501Z" fill="#326DBE"/>
<path fill-rule="evenodd" clip-rule="evenodd" d="M284.791 90.3356C284.791 90.3356 271.722 95.7761 266.763 99.8636C261.805 103.951 244.59 160.778 240.522 171.399C240.084 172.602 240.023 173.912 240.349 175.151C240.674 176.39 241.37 177.498 242.341 178.326C244.161 179.599 246.307 180.315 248.521 180.386C250.736 180.458 252.923 179.883 254.82 178.73C258.139 176.501 263.353 159.153 263.353 159.153L284.791 90.3356Z" fill="#5CB30B"/>
<path fill-rule="evenodd" clip-rule="evenodd" d="M315.692 61.7455L315.387 68.9487V85.9444C315.387 87.6118 316.78 90.232 319.258 90.2713C325.528 98.2213 318.608 106.137 313.958 106.861C309.308 107.585 286.869 102.137 285.362 100.839C284.312 99.9316 291.034 91.7327 290.417 89.1029C290.903 88.9672 290.348 89.1029 290.838 88.9493C292.064 88.5996 293.185 87.9499 294.102 87.058C296.548 84.3687 296.437 72.3812 293.99 69.2453C291.544 66.1093 315.692 61.7455 315.692 61.7455Z" fill="#E8685B"/>
<path fill-rule="evenodd" clip-rule="evenodd" d="M287.365 89.2696C288.852 88.8932 291.767 88.0857 293.006 87.9595C294.737 97.085 304.137 106.221 318 89.3887C323.244 90.2962 335.702 93.6596 343.877 98.4463C343.943 98.5523 347.891 104.966 347.891 108.857C347.891 112.192 343.826 136.738 343.786 158.979C341.937 169.34 340.996 179.843 340.974 190.369C340.974 206.465 346.904 231.73 346.74 253.995C333.043 252.316 272.77 241.287 262.781 253.506C262.026 252.809 260.791 249.796 261.834 245.197C274.299 190.419 248.401 103.366 287.365 89.2696Z" fill="#6DCD13"/>
<path fill-rule="evenodd" clip-rule="evenodd" d="M343.599 217.426C345.164 229.225 346.832 242.043 346.742 253.997C343.438 253.592 337.418 252.641 330.051 251.606C330.618 244.29 327.067 228.07 323.589 228.07H269.365C267.529 228.071 265.75 228.707 264.324 229.869C264.773 225.701 265.084 221.433 265.285 217.084C276.049 215.544 310.733 212.806 324.716 212.529C335.751 212.313 340.588 214.693 343.599 217.426Z" fill="#5CB30B"/>
<path fill-rule="evenodd" clip-rule="evenodd" d="M290.138 88.6157C291.08 88.3385 292.039 88.1197 293.008 87.9607C294.21 96.7015 304.041 104.525 318.002 89.3899C319.748 89.6137 321.471 89.994 323.15 90.5261C312.156 109.04 289.015 110.528 290.078 88.9468C290.078 88.9123 290.103 88.7837 290.138 88.6157Z" fill="white"/>
<path fill-rule="evenodd" clip-rule="evenodd" d="M305.227 101.539C305.317 101.422 305.449 101.344 305.594 101.322C305.74 101.299 305.888 101.334 306.01 101.418C306.131 101.502 306.215 101.63 306.246 101.775C306.276 101.92 306.25 102.072 306.173 102.198C301.152 109.538 303.874 114.176 306.786 119.138C309.075 123.037 311.475 127.128 310.667 132.828C310.642 132.978 310.56 133.111 310.439 133.2C310.318 133.29 310.167 133.328 310.018 133.306C309.869 133.285 309.735 133.206 309.643 133.086C309.551 132.967 309.509 132.816 309.527 132.665C310.278 127.37 307.989 123.458 305.795 119.73C302.687 114.439 299.786 109.491 305.227 101.539Z" fill="white"/>
<path fill-rule="evenodd" clip-rule="evenodd" d="M298.034 101.568C298.029 101.49 298.041 101.412 298.067 101.338C298.094 101.265 298.134 101.198 298.187 101.141C298.24 101.083 298.304 101.038 298.375 101.006C298.446 100.975 298.523 100.958 298.6 100.957C298.678 100.956 298.755 100.971 298.827 101.001C298.899 101.03 298.964 101.074 299.018 101.13C299.072 101.186 299.115 101.252 299.143 101.325C299.171 101.398 299.185 101.476 299.182 101.554C299.182 101.616 299.69 123.16 285.618 122.194C285.47 122.178 285.334 122.105 285.238 121.99C285.142 121.875 285.094 121.727 285.104 121.577C285.114 121.428 285.181 121.288 285.291 121.187C285.401 121.086 285.546 121.031 285.695 121.035C298.503 121.914 298.034 101.625 298.034 101.568Z" fill="white"/>
<path fill-rule="evenodd" clip-rule="evenodd" d="M285.081 122.999C285.36 122.998 285.632 122.913 285.863 122.756C286.095 122.599 286.274 122.376 286.38 122.116C286.486 121.857 286.513 121.571 286.458 121.296C286.403 121.02 286.268 120.768 286.07 120.569C285.872 120.371 285.621 120.236 285.347 120.182C285.073 120.127 284.79 120.156 284.532 120.263C284.275 120.371 284.054 120.553 283.899 120.787C283.744 121.02 283.661 121.295 283.661 121.576C283.663 121.954 283.813 122.316 284.079 122.583C284.345 122.849 284.705 122.999 285.081 122.999Z" fill="white"/>
<path fill-rule="evenodd" clip-rule="evenodd" d="M310.012 134.744C310.29 134.742 310.563 134.658 310.794 134.501C311.025 134.344 311.205 134.122 311.311 133.862C311.417 133.603 311.444 133.317 311.39 133.042C311.335 132.767 311.2 132.514 311.003 132.316C310.806 132.117 310.555 131.982 310.282 131.927C310.009 131.872 309.725 131.9 309.467 132.006C309.21 132.113 308.989 132.294 308.833 132.527C308.678 132.76 308.594 133.034 308.592 133.314C308.592 133.693 308.742 134.057 309.008 134.325C309.274 134.593 309.635 134.744 310.012 134.744Z" fill="white"/>
<path fill-rule="evenodd" clip-rule="evenodd" d="M362.617 442.345C362.617 442.345 347.456 464.021 345.091 463.526C345.091 463.526 343.691 462.478 342.76 461.774C341.829 461.07 341.207 459.098 342.287 455.8C343.367 452.502 345.857 445.604 346.528 443.413C347.199 441.223 344.635 431.58 344.399 430.305C344.162 429.031 349.046 427.589 349.975 427.19C350.903 426.791 351.547 428.008 352.452 429.234C353.357 430.461 362.617 442.345 362.617 442.345Z" fill="#FAC74C"/>
<path fill-rule="evenodd" clip-rule="evenodd" d="M348.649 466.197L373.835 432.221C373.978 432.027 374.038 431.783 374.004 431.544C373.969 431.305 373.841 431.089 373.649 430.944L371.55 429.364C371.356 429.22 371.114 429.159 370.876 429.193C370.638 429.228 370.423 429.356 370.278 429.55L345.091 463.526C344.947 463.721 344.886 463.964 344.921 464.204C344.955 464.444 345.083 464.661 345.275 464.806L347.376 466.383C347.472 466.455 347.58 466.508 347.696 466.537C347.812 466.567 347.932 466.573 348.051 466.556C348.169 466.539 348.283 466.498 348.385 466.437C348.488 466.375 348.577 466.294 348.649 466.197Z" fill="#0A1731"/>
<path fill-rule="evenodd" clip-rule="evenodd" d="M348.65 466.197L357.208 454.653C357.352 454.459 357.413 454.215 357.378 453.975C357.344 453.736 357.216 453.52 357.024 453.375L354.923 451.798C354.73 451.654 354.488 451.593 354.25 451.627C354.012 451.662 353.798 451.79 353.654 451.984L345.095 463.526C344.952 463.72 344.891 463.964 344.925 464.204C344.96 464.444 345.087 464.661 345.28 464.806L347.381 466.383C347.574 466.527 347.816 466.589 348.053 466.554C348.291 466.519 348.506 466.391 348.65 466.197Z" fill="#00030C"/>
<path fill-rule="evenodd" clip-rule="evenodd" d="M348.335 442.574C348.829 442.761 351.647 443.241 351.605 444.345C351.562 445.449 351.592 449.131 350.615 450.453C349.638 451.775 347.57 454.556 344.982 458.049C342.394 461.541 341.781 459.824 341.781 459.824C341.845 460.578 342.198 461.277 342.765 461.774C343.696 462.478 345.095 463.526 345.095 463.526L370.279 429.555C370.279 429.555 369.688 426.87 365.784 423.939C361.881 421.008 359.776 419.126 358.727 419.229C357.678 419.331 357.703 419.966 357.703 419.966C358.019 424.314 354.017 426.286 351.875 427.278C351.645 427.385 351.424 427.479 351.207 427.571C349.396 428.32 348.062 428.613 347.846 430.327C347.601 432.245 347.429 439.516 347.388 440.671C347.346 441.825 347.841 442.384 348.335 442.574Z" fill="#F4A23B"/>
<path fill-rule="evenodd" clip-rule="evenodd" d="M343.341 462.206L345.095 463.526L370.279 429.555C370.279 429.555 369.688 426.87 365.784 423.939C361.881 421.008 359.776 419.126 358.727 419.229C360.035 420.088 360.938 421.809 360.069 422.984L355.051 429.756C353.208 432.237 354.158 433.731 354.158 433.731C354.158 433.731 355.695 436.84 356.769 439.056C357.843 441.271 357.919 443.668 357.102 444.772L344.991 461.107C344.808 461.396 344.567 461.644 344.282 461.833C343.998 462.023 343.677 462.15 343.341 462.206Z" fill="#EE7D3A"/>
<path fill-rule="evenodd" clip-rule="evenodd" d="M348.488 431.388C348.533 431.378 348.576 431.358 348.613 431.33C348.65 431.303 348.681 431.267 348.703 431.226C348.726 431.185 348.739 431.14 348.743 431.094C348.746 431.047 348.74 431 348.724 430.957C348.678 430.868 348.601 430.8 348.509 430.762C348.417 430.725 348.315 430.721 348.22 430.752L345.054 431.697L344.699 431.578L344.904 432.451L345.051 432.411L348.2 433.414C348.294 433.446 348.396 433.444 348.489 433.408C348.582 433.372 348.659 433.305 348.707 433.217C348.723 433.173 348.73 433.126 348.726 433.08C348.723 433.033 348.71 432.988 348.687 432.947C348.665 432.906 348.634 432.87 348.596 432.842C348.559 432.815 348.516 432.795 348.47 432.786L346.211 432.064L348.484 431.385L348.488 431.388ZM346.343 439.381C346.303 439.13 346.262 438.877 346.217 438.623L348.411 439.321C348.457 439.331 348.5 439.35 348.537 439.378C348.575 439.406 348.606 439.442 348.629 439.483C348.651 439.524 348.664 439.57 348.668 439.617C348.671 439.664 348.664 439.711 348.648 439.755C348.6 439.843 348.523 439.911 348.431 439.947C348.338 439.984 348.235 439.985 348.141 439.952L346.347 439.381H346.343ZM346.208 438.584C346.171 438.36 346.129 438.136 346.09 437.909L348.165 437.289C348.259 437.257 348.362 437.26 348.454 437.297C348.547 437.335 348.623 437.404 348.669 437.493C348.685 437.537 348.692 437.583 348.688 437.63C348.685 437.677 348.672 437.722 348.649 437.763C348.627 437.804 348.596 437.839 348.558 437.867C348.521 437.894 348.478 437.914 348.432 437.923L346.214 438.584H346.208ZM345.682 435.891C345.606 435.534 345.528 435.176 345.445 434.837L348.187 434.02C348.282 433.989 348.384 433.993 348.477 434.03C348.569 434.068 348.645 434.137 348.692 434.225C348.708 434.269 348.714 434.316 348.71 434.363C348.706 434.409 348.692 434.455 348.669 434.495C348.646 434.536 348.614 434.571 348.576 434.599C348.539 434.626 348.496 434.645 348.45 434.655L346.176 435.335L348.437 436.049C348.482 436.059 348.525 436.079 348.563 436.106C348.6 436.134 348.631 436.17 348.653 436.211C348.676 436.252 348.689 436.297 348.693 436.344C348.696 436.391 348.69 436.438 348.674 436.482C348.626 436.57 348.549 436.639 348.455 436.675C348.362 436.711 348.259 436.713 348.165 436.679L345.682 435.891Z" fill="white"/>
<path d="M284.707 446.525H293.255C293.699 446.525 294.125 446.703 294.439 447.019C294.753 447.336 294.93 447.765 294.93 448.212V464.748C294.93 465.195 294.753 465.625 294.439 465.941C294.124 466.258 293.698 466.435 293.253 466.435H284.707C284.487 466.435 284.269 466.392 284.066 466.307C283.863 466.222 283.678 466.098 283.523 465.941C283.367 465.784 283.244 465.598 283.16 465.393C283.076 465.189 283.033 464.969 283.033 464.748V448.211C283.033 447.764 283.21 447.335 283.523 447.019C283.837 446.703 284.263 446.525 284.707 446.525V446.525Z" fill="#EE7D3A"/>
<path fill-rule="evenodd" clip-rule="evenodd" d="M291.209 446.292L292.176 443.314C292.319 442.877 292.767 441.244 290.561 441.244H285.214C284.196 441.187 283.188 441.476 282.353 442.065C281.517 442.654 280.903 443.509 280.608 444.492C279.72 447.232 278.124 452.135 277.583 453.811C277.043 455.486 269.259 459.632 268.102 460.891C267.293 461.685 266.776 462.733 266.638 463.863C266.709 464.156 282.197 465.915 284.354 464.912C286.512 463.909 288.891 454.397 288.891 454.397L291.209 446.292Z" fill="#FAC74C"/>
<path fill-rule="evenodd" clip-rule="evenodd" d="M284.217 467.02L285.781 466.436C286.297 466.017 286.682 465.457 286.886 464.822C287.232 463.75 287.749 462.161 288.025 461.309C288.3 460.458 289.25 460.317 289.739 458.808C290.227 457.299 292.506 450.285 293.134 448.347C293.762 446.408 291.783 445.233 290.601 444.089C289.42 442.944 286.912 444.005 286.178 446.268C285.445 448.531 284.618 451.07 284.002 452.971C283.386 454.872 283.447 455.711 284.453 456.631C285.458 457.552 286.163 458.276 286.463 458.527C286.764 458.779 286.187 459.978 285.407 460.928C284.516 461.908 283.425 462.682 282.209 463.197C280.994 463.713 279.681 463.958 278.363 463.915H270.707C268.739 463.915 268.37 462.662 268.949 460.876C269.529 459.089 277.509 457.751 278.827 453.697C280.144 449.642 281.036 446.886 281.333 445.972C281.436 445.704 281.432 445.407 281.322 445.142C281.211 444.878 281.003 444.667 280.742 444.553C280.477 444.344 279.862 444.572 278.258 446.187C276.654 447.802 276.578 449.056 275.666 451.862C274.754 454.668 272.275 457.181 269.402 459.108C266.53 461.035 263.934 462.574 262.681 466.434C261.428 470.294 281.509 470.929 284.217 467.02Z" fill="#F4A23B"/>
<path fill-rule="evenodd" clip-rule="evenodd" d="M290.128 457.613L293.134 448.348C293.763 446.41 291.783 445.234 290.601 444.09C290.515 444.005 290.418 443.932 290.314 443.871C290.347 443.901 291.076 444.652 290.53 446.334C289.972 448.051 289.402 449.806 288.756 451.812C288.332 452.799 288.237 453.897 288.485 454.943C288.734 455.988 289.312 456.925 290.133 457.611L290.128 457.613ZM279.409 445.125C279.009 445.459 278.627 445.814 278.264 446.188C276.658 447.801 276.584 449.058 275.672 451.864C275.141 453.371 274.297 454.747 273.197 455.901C274.656 454.589 276.001 453.155 277.219 451.613C278.056 449.487 278.787 447.319 279.409 445.119V445.125ZM266.645 461.025C264.781 462.351 263.392 464.249 262.687 466.436C261.585 469.831 276.987 470.723 282.553 468.235L278.188 469.009L280.984 466.858C280.984 466.858 280.866 464.962 279.52 464.962H268.422C266.948 464.962 265.582 464.305 266.645 461.025Z" fill="#EE7D3A"/>
<path fill-rule="evenodd" clip-rule="evenodd" d="M284.124 471.547H261.028C260.902 471.554 260.776 471.528 260.663 471.472C260.55 471.415 260.454 471.33 260.384 471.225C260.313 471.12 260.271 470.998 260.262 470.871C260.252 470.744 260.276 470.618 260.33 470.503L261.31 467.482C261.413 467.191 261.598 466.937 261.842 466.751C262.087 466.565 262.381 466.455 262.687 466.436H285.781C285.907 466.429 286.033 466.455 286.146 466.511C286.259 466.568 286.356 466.653 286.426 466.759C286.497 466.864 286.539 466.987 286.549 467.113C286.558 467.24 286.535 467.367 286.481 467.482L285.501 470.503C285.397 470.793 285.212 471.047 284.967 471.232C284.722 471.418 284.429 471.527 284.124 471.547Z" fill="#0A1731"/>
<path fill-rule="evenodd" clip-rule="evenodd" d="M293.014 471.547H277.039C276.913 471.554 276.788 471.528 276.675 471.471C276.562 471.415 276.466 471.33 276.395 471.225C276.325 471.119 276.283 470.998 276.273 470.871C276.263 470.744 276.287 470.618 276.34 470.503L277.321 467.482C277.424 467.192 277.61 466.938 277.855 466.752C278.1 466.566 278.393 466.456 278.699 466.435H294.674C294.8 466.429 294.925 466.455 295.038 466.512C295.151 466.569 295.247 466.654 295.318 466.76C295.388 466.865 295.43 466.987 295.439 467.114C295.449 467.24 295.426 467.367 295.372 467.482L294.391 470.503C294.288 470.793 294.103 471.047 293.858 471.232C293.613 471.418 293.32 471.527 293.014 471.547Z" fill="#00030C"/>
<path fill-rule="evenodd" clip-rule="evenodd" d="M280.121 446.113C279.929 446.048 279.884 445.847 280.02 445.664C280.088 445.576 280.18 445.509 280.285 445.472C280.39 445.435 280.503 445.429 280.612 445.455L283.558 446.471L287.161 445.455C287.398 445.389 287.6 445.486 287.617 445.664C287.61 445.772 287.568 445.874 287.498 445.956C287.428 446.037 287.333 446.092 287.228 446.113L284.639 446.839L286.754 447.564C286.946 447.628 286.991 447.83 286.856 448.013C286.788 448.102 286.696 448.169 286.591 448.206C286.486 448.243 286.373 448.248 286.265 448.221L283.319 447.21L279.715 448.221C279.478 448.287 279.277 448.195 279.258 448.013C279.265 447.905 279.307 447.802 279.378 447.721C279.449 447.64 279.544 447.585 279.65 447.564L282.238 446.839L280.121 446.113ZM284.962 452.239C285.199 452.174 285.401 452.27 285.419 452.448C285.411 452.556 285.368 452.658 285.298 452.738C285.227 452.819 285.132 452.875 285.027 452.896L282.44 453.621L284.557 454.348C284.6 454.362 284.64 454.387 284.671 454.421C284.702 454.455 284.723 454.496 284.733 454.541C284.743 454.586 284.741 454.633 284.728 454.677C284.714 454.721 284.689 454.761 284.656 454.792C284.589 454.882 284.497 454.95 284.392 454.987C284.286 455.024 284.173 455.03 284.064 455.002L281.118 453.991L277.514 455.002C277.277 455.07 277.075 454.974 277.058 454.792C277.065 454.685 277.108 454.584 277.178 454.503C277.249 454.423 277.344 454.368 277.448 454.348L280.035 453.621L277.919 452.896C277.876 452.882 277.836 452.856 277.805 452.822C277.775 452.788 277.753 452.746 277.743 452.701C277.733 452.656 277.735 452.609 277.748 452.564C277.762 452.52 277.786 452.48 277.82 452.448C277.888 452.36 277.98 452.293 278.085 452.256C278.19 452.218 278.303 452.213 278.411 452.239L281.359 453.25L284.962 452.239ZM286.062 448.848C286.299 448.78 286.5 448.877 286.519 449.058C286.511 449.165 286.469 449.267 286.399 449.348C286.329 449.429 286.234 449.484 286.13 449.507L283.54 450.228L285.657 450.958C285.848 451.024 285.893 451.22 285.757 451.401C285.69 451.491 285.598 451.559 285.493 451.596C285.388 451.633 285.274 451.638 285.166 451.611L282.219 450.601L278.617 451.611C278.381 451.677 278.178 451.585 278.159 451.401C278.14 451.218 278.318 451.024 278.55 450.958L281.137 450.228L279.022 449.507C278.978 449.492 278.939 449.466 278.908 449.432C278.878 449.397 278.856 449.356 278.846 449.311C278.836 449.265 278.837 449.218 278.851 449.174C278.864 449.13 278.888 449.09 278.921 449.058C278.988 448.968 279.08 448.9 279.186 448.863C279.291 448.826 279.405 448.821 279.513 448.848L282.459 449.86L286.062 448.848Z" fill="white"/>
<path fill-rule="evenodd" clip-rule="evenodd" d="M342.296 97.5638C346.993 99.0717 356.986 109.561 358.785 117.006C360.584 124.451 369.377 155.64 368.977 170.53H344.196C344.196 170.53 338.001 143.768 338.8 128.475C339.433 118.117 340.6 107.8 342.296 97.5638Z" fill="#5CB30B"/>
<path fill-rule="evenodd" clip-rule="evenodd" d="M278.06 48.6609C277.879 48.686 277.7 48.7157 277.52 48.7526H277.514C275.878 49.0996 274.407 49.9966 273.344 51.2963C272.282 52.5961 271.69 54.2211 271.666 55.9045C271.642 57.5879 272.187 59.2295 273.212 60.5594C274.238 61.8893 275.682 62.8285 277.307 63.2226C278.933 63.6166 280.643 63.4422 282.158 62.7279C283.672 62.0136 284.9 60.8019 285.639 59.292C286.379 57.7821 286.586 56.0638 286.227 54.4194C285.869 52.7751 284.965 51.3025 283.665 50.2438C283.852 52.4329 283.506 55.1412 280.732 55.4128L280.813 51.1382C280.805 50.79 280.725 50.4472 280.58 50.1309C280.435 49.8147 280.227 49.5318 279.969 49.2996C279.711 49.0675 279.409 48.891 279.08 48.7812C278.752 48.6713 278.405 48.6304 278.06 48.6609Z" fill="#E8685B"/>
<path fill-rule="evenodd" clip-rule="evenodd" d="M331.203 48.661C331.387 48.686 331.565 48.7158 331.745 48.7527C333.381 49.0997 334.851 49.9967 335.914 51.2962C336.976 52.5957 337.568 54.2205 337.592 55.9036C337.616 57.5867 337.071 59.2279 336.045 60.5575C335.02 61.8872 333.576 62.8262 331.951 63.2202C330.326 63.6142 328.616 63.4398 327.102 62.7256C325.588 62.0115 324.36 60.8001 323.621 59.2905C322.881 57.7809 322.674 56.0629 323.032 54.4189C323.391 52.7748 324.294 51.3025 325.594 50.2438C325.408 52.4329 325.753 55.1413 328.528 55.4128L328.447 51.1383C328.455 50.7897 328.535 50.4464 328.68 50.1298C328.825 49.8133 329.033 49.5301 329.292 49.2979C329.55 49.0656 329.853 48.8893 330.182 48.7797C330.511 48.6702 330.858 48.6298 331.203 48.661Z" fill="#E8685B"/>
<path fill-rule="evenodd" clip-rule="evenodd" d="M304.635 11.6267C297.955 11.6459 291.553 14.3262 286.829 19.0821C282.105 23.838 279.442 30.2831 279.422 37.0095V60.0971C279.441 66.8235 282.104 73.2686 286.829 78.0244C291.553 82.7802 297.955 85.4602 304.635 85.4787C311.315 85.4589 317.716 82.7784 322.439 78.0227C327.162 73.2671 329.824 66.8227 329.844 60.0971V37.0095C329.824 30.2839 327.162 23.8396 322.439 19.0838C317.715 14.328 311.315 11.6471 304.635 11.6267Z" fill="#F4AD85"/>
<path fill-rule="evenodd" clip-rule="evenodd" d="M299.182 84.876C300.972 85.2766 302.8 85.4787 304.633 85.4787C311.313 85.4589 317.713 82.7784 322.436 78.0227C327.16 73.267 329.822 66.8226 329.842 60.0971V37.0094C329.828 32.1498 328.435 27.3955 325.825 23.3077C323.215 19.2199 319.498 15.9693 315.112 13.9396C310.601 13.7077 306.083 14.1994 301.725 15.3962C284.739 20.0245 282.639 39.6427 282.639 39.6427H310.818C316.914 39.6427 323.609 39.844 323.609 51.5147C323.609 63.1854 325.072 83.8565 303.508 84.3365C302.047 84.2957 300.589 84.4776 299.182 84.876Z" fill="#EF8871"/>
<path fill-rule="evenodd" clip-rule="evenodd" d="M298.139 67.0001C298.088 68.7305 298.718 70.411 299.892 71.6762C301.065 72.9415 302.687 73.6893 304.405 73.7571C306.123 73.8249 307.799 73.2072 309.067 72.0383C310.335 70.8693 311.094 69.2437 311.178 67.5146H311.166C311.177 67.2143 311.069 66.9218 310.867 66.7011C310.664 66.4804 310.383 66.3494 310.085 66.3367L299.32 65.9103C299.022 65.9 298.732 66.0083 298.513 66.2119C298.294 66.4155 298.163 66.6978 298.149 66.9977L298.139 67.0001Z" fill="white"/>
<path fill-rule="evenodd" clip-rule="evenodd" d="M300.367 72.2049C301.387 73.1018 302.659 73.6569 304.006 73.7933C305.353 73.9297 306.709 73.6405 307.886 72.966C307.593 72.229 307.094 71.5937 306.449 71.1378C305.804 70.6818 305.041 70.4248 304.253 70.3981C303.503 70.3112 302.744 70.4338 302.059 70.7525C301.373 71.0712 300.788 71.5737 300.367 72.2049Z" fill="white"/>
<path fill-rule="evenodd" clip-rule="evenodd" d="M310.228 66.3531L300.112 65.9529C299.985 66.4316 300.015 66.9387 300.197 67.399C300.379 67.8593 300.704 68.248 301.123 68.5076C302.027 68.8459 309.355 68.9435 309.896 68.3885C310.185 67.7522 310.3 67.0493 310.228 66.3531Z" fill="white"/>
<path fill-rule="evenodd" clip-rule="evenodd" d="M318.544 61.4346C317.906 61.4227 317.279 61.6016 316.742 61.9485C316.205 62.2955 315.782 62.795 315.527 63.3839C315.271 63.9728 315.195 64.6247 315.308 65.2571C315.421 65.8895 315.717 66.474 316.16 66.9368C316.602 67.3996 317.171 67.7199 317.795 67.8572C318.418 67.9945 319.068 67.9426 319.662 67.7081C320.256 67.4735 320.768 67.0669 321.133 66.5396C321.497 66.0123 321.698 65.388 321.711 64.7456C321.719 64.3188 321.644 63.8944 321.489 63.4968C321.335 63.0993 321.104 62.7363 320.809 62.4288C320.515 62.1212 320.164 61.8751 319.775 61.7045C319.386 61.5339 318.968 61.4422 318.544 61.4346Z" fill="#E8685B"/>
<path fill-rule="evenodd" clip-rule="evenodd" d="M290.787 60.9022C290.149 60.8898 289.521 61.0684 288.983 61.4152C288.446 61.7621 288.022 62.2616 287.767 62.8508C287.511 63.4399 287.435 64.0921 287.547 64.7249C287.66 65.3578 287.956 65.9428 288.399 66.4059C288.842 66.8691 289.411 67.1897 290.035 67.327C290.659 67.4644 291.309 67.4125 291.904 67.1778C292.498 66.943 293.01 66.5361 293.375 66.0084C293.739 65.4807 293.94 64.856 293.953 64.2132C293.967 63.3519 293.643 62.5198 293.049 61.8992C292.456 61.2786 291.642 60.92 290.787 60.9022Z" fill="#E8685B"/>
<path fill-rule="evenodd" clip-rule="evenodd" d="M289.021 48.6253C288.809 48.7324 288.563 48.7503 288.338 48.675C288.113 48.5997 287.927 48.4375 287.82 48.224C287.714 48.0104 287.696 47.7631 287.771 47.5364C287.846 47.3097 288.007 47.1222 288.219 47.0151C289.433 46.3704 290.786 46.0362 292.159 46.0418C293.532 46.0474 294.882 46.3927 296.091 47.0472C296.295 47.17 296.443 47.3693 296.501 47.6015C296.559 47.8337 296.524 48.0797 296.402 48.2853C296.28 48.4909 296.082 48.6394 295.851 48.698C295.621 48.7567 295.376 48.7206 295.172 48.5979C294.223 48.0957 293.165 47.8355 292.093 47.8403C291.021 47.8451 289.966 48.1146 289.021 48.6253Z" fill="#00030C"/>
<path fill-rule="evenodd" clip-rule="evenodd" d="M321.204 48.6265C320.26 48.115 319.205 47.8446 318.133 47.8388C317.06 47.833 316.003 48.092 315.053 48.5931C314.849 48.716 314.605 48.7523 314.375 48.694C314.144 48.6357 313.946 48.4876 313.824 48.2823C313.702 48.0769 313.666 47.8312 313.724 47.5991C313.782 47.3671 313.929 47.1677 314.133 47.0448C315.342 46.3903 316.692 46.045 318.064 46.0394C319.437 46.0338 320.79 46.368 322.004 47.0126C322.21 47.1224 322.366 47.3092 322.438 47.533C322.509 47.7568 322.491 47.9999 322.387 48.2104C322.283 48.4209 322.101 48.582 321.88 48.6593C321.66 48.7366 321.418 48.724 321.206 48.6241L321.204 48.6265Z" fill="#00030C"/>
<path d="M318.462 51.6611C318.748 51.661 319.031 51.7175 319.295 51.8275C319.559 51.9375 319.799 52.0988 320.001 52.3022C320.203 52.5056 320.364 52.7471 320.473 53.0129C320.582 53.2788 320.639 53.5637 320.639 53.8514V56.7098C320.639 57.291 320.409 57.8484 320.001 58.2594C319.593 58.6704 319.039 58.9013 318.462 58.9013C317.885 58.9013 317.332 58.6707 316.924 58.2602C316.517 57.8497 316.287 57.2929 316.287 56.7122V53.8538C316.287 53.566 316.343 53.2809 316.452 53.0149C316.561 52.7489 316.721 52.5071 316.923 52.3035C317.125 52.0999 317.365 51.9383 317.629 51.8281C317.893 51.7179 318.176 51.6611 318.462 51.6611Z" fill="#00030C"/>
<path d="M291.753 51.6611C292.039 51.6608 292.322 51.7172 292.587 51.8272C292.851 51.9371 293.091 52.0984 293.293 52.3018C293.495 52.5052 293.656 52.7468 293.765 53.0127C293.875 53.2786 293.931 53.5636 293.931 53.8514V56.7098C293.932 56.9978 293.875 57.2829 293.766 57.549C293.657 57.8151 293.497 58.0569 293.294 58.2605C293.092 58.4642 292.852 58.6257 292.588 58.7359C292.324 58.846 292.041 58.9026 291.755 58.9025C291.177 58.9025 290.624 58.6716 290.216 58.2606C289.807 57.8496 289.578 57.2922 289.578 56.711V53.8526C289.578 53.5649 289.634 53.2799 289.743 53.014C289.853 52.7482 290.013 52.5066 290.215 52.3031C290.417 52.0996 290.657 51.9381 290.921 51.828C291.185 51.7178 291.468 51.6611 291.753 51.6611Z" fill="#00030C"/>
<path fill-rule="evenodd" clip-rule="evenodd" d="M288.621 32.0334C287.89 32.6176 287.306 33.3674 286.917 34.2217C286.528 35.0761 286.345 36.0108 286.383 36.9499C286.383 42.4071 285.355 46.7364 281.899 46.7364V51.0168C281.899 53.4108 281.662 55.8321 279.422 55.8321C279.422 50.6834 277.864 48.6598 277.864 48.6598V42.2034C277.348 41.9078 276.915 41.4859 276.605 40.9768C276.295 40.4677 276.118 39.888 276.089 39.2914C276.018 38.0932 276.26 36.8971 276.79 35.822C275.551 34.2852 274.892 32.3572 274.928 30.3785C274.964 28.3998 275.693 26.4975 276.987 25.0076C276.769 23.5652 276.996 22.0902 277.638 20.7819C277.879 20.3272 278.275 19.9751 278.753 19.7903C279.231 19.6055 279.759 19.6002 280.24 19.7755C280.24 19.7755 280.713 9.6591 290.581 10.3177C290.581 10.3177 292.474 5.69066 296.677 8.30611C296.677 8.30611 307.369 -0.144086 318.261 8.60744C318.261 8.60744 322.158 6.59583 322.457 11.0216C322.457 11.0216 330.089 11.0121 330.35 19.9768C330.35 19.9768 335.804 25.5995 333.149 33.0553C333.149 33.0553 334.456 37.0797 331.403 37.9848V48.6598C331.403 48.6598 329.845 50.6845 329.845 55.8321C327.598 55.8321 327.369 53.4108 327.369 51.0168V46.7364C323.911 46.7364 322.883 42.4071 322.883 36.9499C322.922 35.9961 322.733 35.0469 322.331 34.182C321.93 33.3171 321.329 32.5619 320.577 31.9798C322.266 35.1836 321.432 37.6537 317.101 33.6877C319.94 39.3152 310.068 39.2961 307.164 33.9961C307.164 33.9961 306.324 36.9415 304.827 36.4341C303.329 35.9268 303.25 32.424 303.25 32.424C300.778 37.5382 293.693 38.0527 293.195 32.6003C291.286 35.9161 286.915 35.7076 288.621 32.0334Z" fill="#00081A"/>
<path fill-rule="evenodd" clip-rule="evenodd" d="M282.972 13.0214C283.577 12.3497 284.29 11.786 285.082 11.354C298.514 26.9919 317.418 14.5138 322.431 10.7275C322.44 10.8216 322.451 10.9181 322.457 11.0181C324.149 11.0712 325.781 11.6642 327.117 12.7116C328.452 13.7591 329.423 15.2068 329.888 16.8457C326.432 22.0016 317.006 26.9395 301.51 25.5222C297.612 25.2251 293.856 23.9178 290.608 21.7274C287.359 19.5369 284.729 16.5378 282.972 13.0214Z" fill="#0A1731"/>
<path fill-rule="evenodd" clip-rule="evenodd" d="M288.621 32.0334C287.89 32.6176 287.306 33.3674 286.917 34.2217C286.528 35.0761 286.345 36.0108 286.383 36.9498C286.383 42.407 285.355 46.7363 281.899 46.7363V51.0168C281.899 53.4108 281.662 55.8321 279.422 55.8321C279.422 50.6833 277.864 48.6598 277.864 48.6598V42.2034C277.348 41.9078 276.915 41.4859 276.605 40.9768C276.295 40.4677 276.118 39.888 276.089 39.2914C276.018 38.0932 276.26 36.8971 276.79 35.822C275.991 34.8063 275.429 33.6235 275.143 32.3604C274.857 31.0973 274.856 29.7859 275.14 28.5223C275.069 29.3431 275.266 30.1647 275.701 30.8628C276.135 31.561 276.784 32.0977 277.548 32.3919C280.196 33.247 283.306 28.639 283.306 28.639C283.306 28.639 282.845 31.9893 284.144 32.5431C285.443 33.0969 288.903 29.5418 288.903 29.5418C288.903 29.5418 289.488 28.6938 289.538 29.8252C289.588 30.9567 288.745 34.7655 291.415 34.4333C289.463 35.5897 287.339 34.781 288.615 32.0322L288.621 32.0334ZM330.35 19.9768C330.35 19.9768 335.804 25.5995 333.149 33.0553C333.149 33.0553 334.456 37.0797 331.403 37.9848V48.6598C331.403 48.6598 329.845 50.6845 329.845 55.8321C327.598 55.8321 327.369 53.4108 327.369 51.0168V46.7363C323.911 46.7363 322.883 42.407 322.883 36.9498C322.922 35.9961 322.733 35.0469 322.331 34.182C321.93 33.3171 321.329 32.5619 320.577 31.9798C321.936 34.5547 321.662 36.6569 319.254 35.3146C319.309 35.3277 320.569 35.5814 320.519 34.5238C320.362 33.4211 319.952 32.3704 319.322 31.4545C318.945 30.9269 321.495 31.7821 322.819 32.0846C324.143 32.3871 330.614 26.6 330.35 19.9768Z" fill="black"/>
<path d="M272.386 159.419H367.911C368.327 159.419 368.739 159.501 369.123 159.662C369.507 159.822 369.856 160.057 370.15 160.353C370.444 160.649 370.677 161 370.837 161.387C370.996 161.774 371.078 162.188 371.078 162.607V222.387C371.078 222.806 370.996 223.221 370.837 223.607C370.677 223.994 370.444 224.346 370.15 224.642C369.856 224.938 369.507 225.173 369.123 225.333C368.739 225.493 368.327 225.576 367.911 225.576H272.388C271.548 225.576 270.743 225.24 270.149 224.642C269.555 224.044 269.221 223.233 269.221 222.387V162.605C269.221 161.76 269.555 160.949 270.148 160.352C270.742 159.754 271.546 159.419 272.386 159.419Z" fill="#F4A23B"/>
<path d="M241.779 159.419H280.569C281.549 159.419 282.488 159.811 283.181 160.508C283.873 161.205 284.262 162.151 284.262 163.137V221.854C284.262 222.841 283.873 223.787 283.18 224.485C282.487 225.183 281.547 225.575 280.567 225.575H241.778C240.799 225.575 239.859 225.183 239.166 224.486C238.474 223.788 238.084 222.842 238.084 221.856V163.14C238.084 162.153 238.473 161.206 239.166 160.509C239.859 159.811 240.799 159.419 241.779 159.419V159.419Z" fill="#FAC74C" stroke="#F4AD85" stroke-width="0.216" stroke-miterlimit="22.926"/>
<path d="M317.907 180.804H342.185C342.705 180.804 343.22 180.908 343.7 181.108C344.18 181.308 344.617 181.602 344.984 181.972C345.352 182.342 345.643 182.781 345.842 183.265C346.041 183.748 346.143 184.266 346.143 184.79V194.887C346.143 195.41 346.041 195.928 345.842 196.412C345.643 196.895 345.352 197.335 344.984 197.705C344.617 198.075 344.18 198.368 343.7 198.569C343.22 198.769 342.705 198.872 342.185 198.872H317.909C316.859 198.872 315.852 198.452 315.109 197.704C314.367 196.957 313.949 195.943 313.949 194.886V184.79C313.949 183.733 314.366 182.719 315.109 181.972C315.851 181.224 316.858 180.804 317.907 180.804V180.804Z" fill="#FAC74C"/>
<path d="M292.84 159.419H287.297V225.576H292.84V159.419Z" fill="#FAC74C"/>
<path d="M302.733 159.419H297.194V225.576H302.733V159.419Z" fill="#FAC74C"/>
<path d="M357.227 159.419H351.684V225.576H357.227V159.419Z" fill="#FAC74C"/>
<path d="M367.12 159.419H361.578V225.576H367.12V159.419Z" fill="#FAC74C"/>
<path d="M250.725 182.061H271.624C272.528 182.061 273.395 182.423 274.035 183.066C274.674 183.71 275.033 184.583 275.033 185.494V194.188C275.032 195.097 274.673 195.969 274.034 196.612C273.395 197.255 272.529 197.616 271.625 197.616H250.723C250.276 197.616 249.833 197.527 249.419 197.354C249.006 197.182 248.63 196.929 248.314 196.611C247.998 196.292 247.747 195.914 247.576 195.497C247.404 195.081 247.316 194.635 247.317 194.184V185.49C247.317 184.58 247.677 183.708 248.316 183.065C248.955 182.422 249.821 182.061 250.725 182.061V182.061Z" fill="#F4A23B"/>
<path d="M282.878 118.82H341.5C342.016 118.82 342.51 119.026 342.875 119.393C343.239 119.76 343.444 120.258 343.444 120.777V157.46C343.444 157.717 343.394 157.972 343.297 158.21C343.2 158.447 343.056 158.664 342.876 158.846C342.695 159.028 342.481 159.172 342.245 159.271C342.009 159.369 341.756 159.42 341.5 159.42H282.878C282.363 159.42 281.869 159.214 281.505 158.847C281.14 158.48 280.936 157.983 280.936 157.464V120.775C280.936 120.257 281.14 119.759 281.505 119.392C281.869 119.026 282.363 118.82 282.878 118.82Z" fill="#EE7D3A"/>
<path d="M264.092 118.82H287.9C288.501 118.82 289.078 119.06 289.503 119.488C289.928 119.917 290.167 120.497 290.167 121.103V157.138C290.167 157.743 289.928 158.324 289.503 158.752C289.078 159.18 288.502 159.42 287.901 159.42H264.094C263.796 159.42 263.501 159.361 263.225 159.246C262.95 159.131 262.7 158.963 262.49 158.751C262.279 158.539 262.112 158.287 261.998 158.01C261.884 157.733 261.826 157.436 261.826 157.136V121.102C261.826 120.496 262.065 119.916 262.49 119.488C262.915 119.06 263.491 118.82 264.092 118.82V118.82Z" fill="#F4A23B"/>
<path d="M322.212 118.82H309.854V136.099H322.212V118.82Z" fill="#F9E7D8"/>
<path d="M288.51 99.3634H316.603C316.849 99.3634 317.086 99.4622 317.261 99.6379C317.435 99.8137 317.534 100.052 317.534 100.301V117.88C317.534 118.129 317.435 118.368 317.261 118.544C317.086 118.72 316.849 118.819 316.601 118.819H288.51C288.263 118.819 288.026 118.72 287.852 118.544C287.677 118.369 287.579 118.131 287.579 117.882V100.301C287.579 100.052 287.677 99.8137 287.852 99.6379C288.026 99.4622 288.263 99.3634 288.51 99.3634V99.3634Z" fill="#FAC74C"/>
<path fill-rule="evenodd" clip-rule="evenodd" d="M312.651 99.3634H311.648V118.819H312.651V99.3634ZM310.64 99.3634H309.639V118.819H310.64V99.3634ZM308.636 99.3634H307.633V118.819H308.636V99.3634ZM306.625 99.3634H305.623V118.819H306.625V99.3634ZM304.621 99.3634H303.618V118.819H304.621V99.3634ZM302.61 99.3634H301.606V118.819H302.61V99.3634ZM300.605 99.3634H299.601V118.819H300.605V99.3634ZM298.594 99.3634H297.593V118.819H298.594V99.3634ZM296.589 99.3634H295.586V118.819H296.589V99.3634ZM294.578 99.3634H293.577V118.819H294.578V99.3634ZM292.567 99.3634H291.564V118.819H292.567V99.3634ZM290.562 99.3634H289.559V118.819H290.562V99.3634ZM288.551 99.3634H288.441C288.2 99.3693 287.97 99.4712 287.803 99.6468C287.636 99.8224 287.544 100.057 287.548 100.301V117.88C287.544 118.124 287.635 118.359 287.803 118.535C287.97 118.711 288.2 118.813 288.441 118.819H288.551V99.3634Z" fill="#F4A23B"/>
<path d="M306.933 99.3634H318.339C318.627 99.3634 318.904 99.4786 319.107 99.6836C319.311 99.8887 319.425 100.167 319.425 100.457V117.726C319.425 118.017 319.311 118.295 319.107 118.5C318.903 118.706 318.626 118.821 318.338 118.821H306.931C306.789 118.821 306.647 118.793 306.516 118.738C306.384 118.683 306.264 118.602 306.163 118.5C306.062 118.399 305.982 118.278 305.928 118.145C305.873 118.012 305.845 117.87 305.845 117.726V100.458C305.845 100.168 305.96 99.8893 306.164 99.684C306.368 99.4787 306.644 99.3634 306.933 99.3634Z" fill="#EE7D3A"/>
<path fill-rule="evenodd" clip-rule="evenodd" d="M318.381 118.819C318.661 118.807 318.926 118.687 319.121 118.483C319.315 118.279 319.424 118.008 319.425 117.725V100.456C319.425 100.173 319.316 99.9012 319.121 99.6976C318.927 99.494 318.661 99.3742 318.381 99.3634V118.819Z" fill="#F2963A"/>
<path d="M317.336 99.3634H316.292V118.82H317.336V99.3634Z" fill="#F2963A"/>
<path d="M315.248 99.3634H314.203V118.82H315.248V99.3634Z" fill="#F2963A"/>
<path d="M313.158 99.3634H312.114V118.82H313.158V99.3634Z" fill="#F2963A"/>
<path d="M311.068 99.3634H310.023V118.82H311.068V99.3634Z" fill="#F2963A"/>
<path d="M308.979 99.3634H307.933V118.82H308.979V99.3634Z" fill="#F2963A"/>
<path fill-rule="evenodd" clip-rule="evenodd" d="M306.889 99.3657C306.608 99.3768 306.343 99.4967 306.149 99.7003C305.954 99.9039 305.846 100.175 305.845 100.458V117.727C305.846 118.01 305.955 118.281 306.149 118.485C306.344 118.689 306.609 118.809 306.889 118.821V99.3657Z" fill="#F2963A"/>
<path fill-rule="evenodd" clip-rule="evenodd" d="M242.224 215.665C243.904 217.529 243.418 221.42 243.512 220.479C243.607 219.538 245.514 213.359 247.396 215.389C249.278 217.418 247.987 220.403 247.987 220.403C247.987 220.403 249.369 215.25 250.969 216.579C251.419 216.941 251.739 217.441 251.882 218.003C252.025 218.565 251.982 219.158 251.761 219.693C252.131 218.606 254.933 216.872 255.428 220.114C255.772 222.354 255.01 226.316 254.02 227.314C253.661 227.577 253.217 227.694 252.777 227.64C252.336 227.587 251.932 227.367 251.646 227.026C251.465 226.761 251.318 226.473 251.207 226.171C250.497 228.745 248.449 230.866 247.02 226.587C245.837 228.077 243.135 230.742 242.506 226.05C242.506 226.05 242.84 225.51 241.569 226.692C239.015 229.061 238.099 226.676 238.211 223.113C238.393 217.417 240.543 213.8 242.224 215.665Z" fill="#EF8871"/>
<path fill-rule="evenodd" clip-rule="evenodd" d="M367.243 217.94C365.573 219.803 366.079 223.695 365.981 222.753C365.883 221.811 363.943 215.634 362.07 217.664C360.198 219.693 361.503 222.677 361.503 222.677C361.503 222.677 360.097 217.523 358.504 218.851C358.056 219.216 357.739 219.717 357.599 220.279C357.459 220.841 357.505 221.433 357.729 221.967C357.351 220.878 354.535 219.147 354.062 222.386C353.731 224.628 354.512 228.591 355.507 229.589C355.865 229.852 356.309 229.969 356.75 229.915C357.19 229.862 357.593 229.642 357.879 229.301C358.06 229.035 358.206 228.747 358.314 228.444C359.036 231.02 361.097 233.14 362.505 228.862C363.697 230.352 366.409 233.017 367.016 228.323C367.016 228.323 366.676 227.784 367.955 228.964C370.522 231.333 371.423 228.951 371.296 225.385C371.086 219.69 368.916 216.074 367.243 217.94Z" fill="#EF8871"/>
<path fill-rule="evenodd" clip-rule="evenodd" d="M242.27 67.5456C242.27 67.135 242.432 66.7412 242.721 66.4508C243.009 66.1604 243.4 65.9973 243.808 65.9973C244.216 65.9973 244.607 66.1604 244.896 66.4508C245.184 66.7412 245.346 67.135 245.346 67.5456V74.5047C245.346 74.9153 245.184 75.3091 244.896 75.5995C244.607 75.8899 244.216 76.053 243.808 76.053C243.4 76.053 243.009 75.8899 242.721 75.5995C242.432 75.3091 242.27 74.9153 242.27 74.5047V67.5456ZM231.797 73.1946C231.528 72.9007 231.382 72.5133 231.39 72.1135C231.398 71.7137 231.559 71.3325 231.84 71.0497C232.121 70.7669 232.499 70.6045 232.896 70.5965C233.293 70.5885 233.678 70.7355 233.97 71.0067L238.858 75.9279C239.012 76.0689 239.135 76.2398 239.222 76.4303C239.308 76.6208 239.355 76.827 239.36 77.0363C239.365 77.2456 239.327 77.4537 239.25 77.6481C239.173 77.8425 239.057 78.0191 238.91 78.1671C238.763 78.3152 238.588 78.4318 238.395 78.5097C238.202 78.5876 237.995 78.6253 237.787 78.6205C237.579 78.6157 237.374 78.5685 237.185 78.4818C236.996 78.395 236.826 78.2705 236.686 78.1158L231.797 73.1946ZM228.358 84.6473C227.95 84.6473 227.559 84.4842 227.271 84.1938C226.983 83.9034 226.821 83.5096 226.821 83.099C226.821 82.6884 226.983 82.2945 227.271 82.0042C227.559 81.7138 227.95 81.5507 228.358 81.5507H235.271C235.679 81.5507 236.07 81.7138 236.359 82.0042C236.647 82.2945 236.809 82.6884 236.809 83.099C236.809 83.5096 236.647 83.9034 236.359 84.1938C236.07 84.4842 235.679 84.6473 235.271 84.6473H228.358ZM233.97 95.1937C233.829 95.3451 233.659 95.4665 233.471 95.5505C233.282 95.6346 233.079 95.6796 232.873 95.6829C232.667 95.6863 232.462 95.6478 232.271 95.5699C232.08 95.492 231.906 95.3762 231.76 95.2293C231.615 95.0825 231.5 94.9077 231.422 94.7153C231.345 94.5228 231.307 94.3167 231.311 94.1092C231.314 93.9016 231.359 93.6969 231.442 93.5071C231.526 93.3174 231.647 93.1465 231.797 93.0046L236.686 88.0834C236.978 87.8123 237.363 87.6655 237.76 87.6738C238.157 87.682 238.536 87.8446 238.816 88.1275C239.097 88.4104 239.258 88.7917 239.266 89.1916C239.274 89.5914 239.127 89.9787 238.858 90.2724L233.97 95.1937ZM245.345 98.6559C245.345 99.0666 245.183 99.4604 244.894 99.7508C244.606 100.041 244.215 100.204 243.807 100.204C243.399 100.204 243.008 100.041 242.72 99.7508C242.431 99.4604 242.269 99.0666 242.269 98.6559V91.6957C242.269 91.285 242.431 90.8912 242.72 90.6009C243.008 90.3105 243.399 90.1474 243.807 90.1474C244.215 90.1474 244.606 90.3105 244.894 90.6009C245.183 90.8912 245.345 91.285 245.345 91.6957V98.6559ZM255.819 93.0046C255.968 93.1471 256.086 93.318 256.168 93.5072C256.249 93.6964 256.293 93.9002 256.295 94.1064C256.297 94.3127 256.259 94.5174 256.181 94.7084C256.104 94.8995 255.989 95.073 255.845 95.2189C255.7 95.3648 255.527 95.48 255.338 95.5579C255.148 95.6358 254.944 95.6746 254.74 95.6723C254.535 95.6699 254.332 95.6264 254.144 95.5442C253.957 95.462 253.787 95.3428 253.645 95.1937L248.759 90.2724C248.608 90.1306 248.488 89.9597 248.404 89.7699C248.32 89.5802 248.276 89.3754 248.272 89.1679C248.269 88.9603 248.307 88.7542 248.384 88.5618C248.461 88.3693 248.576 88.1945 248.722 88.0477C248.868 87.9009 249.041 87.785 249.232 87.7071C249.424 87.6292 249.628 87.5908 249.834 87.5941C250.041 87.5974 250.244 87.6424 250.432 87.7265C250.621 87.8105 250.791 87.9319 250.932 88.0834L255.819 93.0046ZM259.257 81.5531C259.665 81.5531 260.056 81.7162 260.344 82.0065C260.633 82.2969 260.795 82.6907 260.795 83.1014C260.795 83.512 260.633 83.9058 260.344 84.1962C260.056 84.4866 259.665 84.6497 259.257 84.6497H252.345C251.937 84.6497 251.546 84.4866 251.258 84.1962C250.97 83.9058 250.807 83.512 250.807 83.1014C250.807 82.6907 250.97 82.2969 251.258 82.0065C251.546 81.7162 251.937 81.5531 252.345 81.5531H259.257ZM253.645 71.0067C253.937 70.7318 254.322 70.5818 254.722 70.5882C255.121 70.5947 255.502 70.7571 255.784 71.0412C256.066 71.3253 256.228 71.7088 256.234 72.1107C256.241 72.5125 256.092 72.9012 255.819 73.1946L250.932 78.1158C250.791 78.2691 250.621 78.3922 250.433 78.4778C250.244 78.5633 250.04 78.6096 249.832 78.6138C249.625 78.6179 249.42 78.5799 249.227 78.5021C249.035 78.4242 248.861 78.308 248.714 78.1606C248.568 78.0131 248.452 77.8374 248.375 77.6439C248.298 77.4504 248.26 77.2432 248.264 77.0347C248.268 76.8262 248.314 76.6207 248.399 76.4305C248.484 76.2403 248.606 76.0694 248.759 75.9279L253.645 71.0067Z" fill="#FADCC2"/>
<defs>
<linearGradient id="paint0_linear_2_261" x1="367.345" y1="22.602" x2="370.934" y2="581.026" gradientUnits="userSpaceOnUse">
<stop offset="0.064" stop-color="white"/>
<stop offset="0.623" stop-color="#FBFCFD"/>
<stop offset="1" stop-color="#F4F6FA"/>
</linearGradient>
</defs>
</svg>
